<?xml version="1.0" encoding="UTF-8" standalone="no"?>
<svg
   xmlns:dc="http://purl.org/dc/elements/1.1/"
   xmlns:cc="http://creativecommons.org/ns#"
   xmlns:rdf="http://www.w3.org/1999/02/22-rdf-syntax-ns#"
   xmlns:svg="http://www.w3.org/2000/svg"
   xmlns="http://www.w3.org/2000/svg"
   xmlns:sodipodi="http://sodipodi.sourceforge.net/DTD/sodipodi-0.dtd"
   xmlns:inkscape="http://www.inkscape.org/namespaces/inkscape"
   width="210mm"
   height="297mm"
   viewBox="0 0 210 297"
   version="1.1"
   id="svg68"
   inkscape:version="1.0.2 (e86c870879, 2021-01-15)"
   sodipodi:docname="icon_battery-v2.svg">
  <defs
     id="defs62" />
  <sodipodi:namedview
     id="base"
     pagecolor="#ffffff"
     bordercolor="#666666"
     borderopacity="1.0"
     inkscape:pageopacity="0.0"
     inkscape:pageshadow="2"
     inkscape:zoom="0.34404762"
     inkscape:cx="400"
     inkscape:cy="560"
     inkscape:document-units="mm"
     inkscape:current-layer="layer1"
     inkscape:document-rotation="0"
     showgrid="false"
     inkscape:window-width="1046"
     inkscape:window-height="1053"
     inkscape:window-x="452"
     inkscape:window-y="213"
     inkscape:window-maximized="0" />
  <metadata
     id="metadata65">
    <rdf:RDF>
      <cc:Work
         rdf:about="">
        <dc:format>image/svg+xml</dc:format>
        <dc:type
           rdf:resource="http://purl.org/dc/dcmitype/StillImage" />
        <dc:title></dc:title>
      </cc:Work>
    </rdf:RDF>
  </metadata>
  <g
     inkscape:label="Calque 1"
     inkscape:groupmode="layer"
     id="layer1">
    <g
       class=""
       id="g6"
       transform="matrix(0.26458333,0,0,0.26458333,25.759946,81.45745)">
      <path
         d="m 230.218,16 c -14.245,0 -51.563,11.946 -51.563,26.718 V 69.436 H 127.562 C 99.072,69.436 76,93.326 76,122.874 V 442.56 C 76,472.11 99.072,496 127.563,496 H 384.438 C 412.928,495.998 436,472.108 436,442.56 V 122.874 C 436,93.327 412.928,69.437 384.437,69.437 H 333.344 V 42.718 C 333.344,27.944 296.027,16 281.782,16 H 230.22 Z M 256,122.875 V 256 H 358.657 L 256,442.563 V 309.438 H 153.343 Z"
         fill="#000000"
         fill-opacity="1"
         id="path4" />
    </g>
  </g>
</svg>
