# Created by FreeCAD <http://www.freecadweb.org>
v -500.000000 500.000000 0.000000
v 500.000000 500.000000 0.000000
v 500.000000 -500.000000 0.000000
v -500.000000 -500.000000 0.000000
v -520.000000 -520.000000 0.000000
v -520.000000 520.000000 0.000000
v 520.000000 -520.000000 0.000000
v 520.000000 520.000000 0.000000
v -520.000000 -520.000000 50.000000
v 520.000000 -520.000000 50.000000
v 520.000000 520.000000 50.000000
v -520.000000 520.000000 50.000000
v 500.000000 -500.000000 50.000000
v -500.000000 -500.000000 50.000000
v -500.000000 500.000000 50.000000
v 500.000000 500.000000 50.000000
v -500.000000 405.000000 10.000000
v -500.000000 500.000000 10.000000
v -500.000000 395.000000 10.000000
v -500.000000 400.000000 5.000000
v -500.000000 305.000000 10.000000
v -500.000000 295.000000 10.000000
v -500.000000 300.000000 5.000000
v -500.000000 205.000000 10.000000
v -500.000000 195.000000 10.000000
v -500.000000 200.000000 5.000000
v -500.000000 105.000000 10.000000
v -500.000000 95.000000 10.000000
v -500.000000 100.000000 5.000000
v -500.000000 5.000000 10.000000
v -500.000000 0.000000 5.000000
v -500.000000 -5.000000 10.000000
v -500.000000 -105.000000 10.000000
v -500.000000 -100.000000 5.000000
v -500.000000 -95.000000 10.000000
v -500.000000 -200.000000 5.000000
v -500.000000 -195.000000 10.000000
v -500.000000 -205.000000 10.000000
v -500.000000 -300.000000 5.000000
v -500.000000 -295.000000 10.000000
v -500.000000 -305.000000 10.000000
v -500.000000 -400.000000 5.000000
v -500.000000 -395.000000 10.000000
v -500.000000 -405.000000 10.000000
v -500.000000 -500.000000 10.000000
v 405.000000 500.000000 10.000000
v 500.000000 500.000000 10.000000
v 395.000000 500.000000 10.000000
v 400.000000 500.000000 5.000000
v 305.000000 500.000000 10.000000
v 295.000000 500.000000 10.000000
v 300.000000 500.000000 5.000000
v 205.000000 500.000000 10.000000
v 195.000000 500.000000 10.000000
v 200.000000 500.000000 5.000000
v 105.000000 500.000000 10.000000
v 95.000000 500.000000 10.000000
v 100.000000 500.000000 5.000000
v 5.000000 500.000000 10.000000
v 0.000000 500.000000 5.000000
v -5.000000 500.000000 10.000000
v -105.000000 500.000000 10.000000
v -100.000000 500.000000 5.000000
v -95.000000 500.000000 10.000000
v -200.000000 500.000000 5.000000
v -195.000000 500.000000 10.000000
v -205.000000 500.000000 10.000000
v -300.000000 500.000000 5.000000
v -295.000000 500.000000 10.000000
v -305.000000 500.000000 10.000000
v -400.000000 500.000000 5.000000
v -395.000000 500.000000 10.000000
v -405.000000 500.000000 10.000000
v 500.000000 -405.000000 10.000000
v 500.000000 -500.000000 10.000000
v 500.000000 -395.000000 10.000000
v 500.000000 -400.000000 5.000000
v 500.000000 -305.000000 10.000000
v 500.000000 -295.000000 10.000000
v 500.000000 -300.000000 5.000000
v 500.000000 -205.000000 10.000000
v 500.000000 -195.000000 10.000000
v 500.000000 -200.000000 5.000000
v 500.000000 -105.000000 10.000000
v 500.000000 -95.000000 10.000000
v 500.000000 -100.000000 5.000000
v 500.000000 -5.000000 10.000000
v 500.000000 0.000000 5.000000
v 500.000000 5.000000 10.000000
v 500.000000 105.000000 10.000000
v 500.000000 100.000000 5.000000
v 500.000000 95.000000 10.000000
v 500.000000 200.000000 5.000000
v 500.000000 195.000000 10.000000
v 500.000000 205.000000 10.000000
v 500.000000 300.000000 5.000000
v 500.000000 295.000000 10.000000
v 500.000000 305.000000 10.000000
v 500.000000 400.000000 5.000000
v 500.000000 395.000000 10.000000
v 500.000000 405.000000 10.000000
v -405.000000 -500.000000 10.000000
v -395.000000 -500.000000 10.000000
v -400.000000 -500.000000 5.000000
v -305.000000 -500.000000 10.000000
v -295.000000 -500.000000 10.000000
v -300.000000 -500.000000 5.000000
v -205.000000 -500.000000 10.000000
v -195.000000 -500.000000 10.000000
v -200.000000 -500.000000 5.000000
v -105.000000 -500.000000 10.000000
v -95.000000 -500.000000 10.000000
v -100.000000 -500.000000 5.000000
v -5.000000 -500.000000 10.000000
v 0.000000 -500.000000 5.000000
v 5.000000 -500.000000 10.000000
v 105.000000 -500.000000 10.000000
v 100.000000 -500.000000 5.000000
v 95.000000 -500.000000 10.000000
v 200.000000 -500.000000 5.000000
v 195.000000 -500.000000 10.000000
v 205.000000 -500.000000 10.000000
v 300.000000 -500.000000 5.000000
v 295.000000 -500.000000 10.000000
v 305.000000 -500.000000 10.000000
v 400.000000 -500.000000 5.000000
v 395.000000 -500.000000 10.000000
v 405.000000 -500.000000 10.000000
v -405.000000 405.000000 10.000000
v -400.000000 400.000000 5.000000
v -405.000000 395.000000 10.000000
v -405.000000 305.000000 10.000000
v -400.000000 300.000000 5.000000
v -405.000000 295.000000 10.000000
v -405.000000 205.000000 10.000000
v -400.000000 200.000000 5.000000
v -405.000000 195.000000 10.000000
v -405.000000 105.000000 10.000000
v -400.000000 100.000000 5.000000
v -405.000000 95.000000 10.000000
v -405.000000 5.000000 10.000000
v -400.000000 0.000000 5.000000
v -405.000000 -5.000000 10.000000
v -405.000000 -95.000000 10.000000
v -400.000000 -100.000000 5.000000
v -405.000000 -105.000000 10.000000
v -405.000000 -195.000000 10.000000
v -400.000000 -200.000000 5.000000
v -405.000000 -205.000000 10.000000
v -405.000000 -295.000000 10.000000
v -400.000000 -300.000000 5.000000
v -405.000000 -305.000000 10.000000
v -405.000000 -395.000000 10.000000
v -400.000000 -400.000000 5.000000
v -405.000000 -405.000000 10.000000
v 405.000000 405.000000 10.000000
v 400.000000 400.000000 5.000000
v 395.000000 405.000000 10.000000
v 305.000000 405.000000 10.000000
v 300.000000 400.000000 5.000000
v 295.000000 405.000000 10.000000
v 205.000000 405.000000 10.000000
v 200.000000 400.000000 5.000000
v 195.000000 405.000000 10.000000
v 105.000000 405.000000 10.000000
v 100.000000 400.000000 5.000000
v 95.000000 405.000000 10.000000
v 5.000000 405.000000 10.000000
v 0.000000 400.000000 5.000000
v -5.000000 405.000000 10.000000
v -95.000000 405.000000 10.000000
v -100.000000 400.000000 5.000000
v -105.000000 405.000000 10.000000
v -195.000000 405.000000 10.000000
v -200.000000 400.000000 5.000000
v -205.000000 405.000000 10.000000
v -295.000000 405.000000 10.000000
v -300.000000 400.000000 5.000000
v -305.000000 405.000000 10.000000
v -395.000000 405.000000 10.000000
v 405.000000 -405.000000 10.000000
v 400.000000 -400.000000 5.000000
v 405.000000 -395.000000 10.000000
v 405.000000 -305.000000 10.000000
v 400.000000 -300.000000 5.000000
v 405.000000 -295.000000 10.000000
v 405.000000 -205.000000 10.000000
v 400.000000 -200.000000 5.000000
v 405.000000 -195.000000 10.000000
v 405.000000 -105.000000 10.000000
v 400.000000 -100.000000 5.000000
v 405.000000 -95.000000 10.000000
v 405.000000 -5.000000 10.000000
v 400.000000 0.000000 5.000000
v 405.000000 5.000000 10.000000
v 405.000000 95.000000 10.000000
v 400.000000 100.000000 5.000000
v 405.000000 105.000000 10.000000
v 405.000000 195.000000 10.000000
v 400.000000 200.000000 5.000000
v 405.000000 205.000000 10.000000
v 405.000000 295.000000 10.000000
v 400.000000 300.000000 5.000000
v 405.000000 305.000000 10.000000
v 405.000000 395.000000 10.000000
v -395.000000 -405.000000 10.000000
v -305.000000 -405.000000 10.000000
v -300.000000 -400.000000 5.000000
v -295.000000 -405.000000 10.000000
v -205.000000 -405.000000 10.000000
v -200.000000 -400.000000 5.000000
v -195.000000 -405.000000 10.000000
v -105.000000 -405.000000 10.000000
v -100.000000 -400.000000 5.000000
v -95.000000 -405.000000 10.000000
v -5.000000 -405.000000 10.000000
v 0.000000 -400.000000 5.000000
v 5.000000 -405.000000 10.000000
v 95.000000 -405.000000 10.000000
v 100.000000 -400.000000 5.000000
v 105.000000 -405.000000 10.000000
v 195.000000 -405.000000 10.000000
v 200.000000 -400.000000 5.000000
v 205.000000 -405.000000 10.000000
v 295.000000 -405.000000 10.000000
v 300.000000 -400.000000 5.000000
v 305.000000 -405.000000 10.000000
v 395.000000 -405.000000 10.000000
v -395.000000 395.000000 10.000000
v -395.000000 305.000000 10.000000
v -395.000000 295.000000 10.000000
v -395.000000 205.000000 10.000000
v -395.000000 195.000000 10.000000
v -395.000000 105.000000 10.000000
v -395.000000 95.000000 10.000000
v -395.000000 5.000000 10.000000
v -395.000000 -5.000000 10.000000
v -395.000000 -95.000000 10.000000
v -395.000000 -105.000000 10.000000
v -395.000000 -195.000000 10.000000
v -395.000000 -205.000000 10.000000
v -395.000000 -295.000000 10.000000
v -395.000000 -395.000000 10.000000
v -395.000000 -305.000000 10.000000
v 395.000000 395.000000 10.000000
v 305.000000 395.000000 10.000000
v 295.000000 395.000000 10.000000
v 205.000000 395.000000 10.000000
v 195.000000 395.000000 10.000000
v 105.000000 395.000000 10.000000
v 95.000000 395.000000 10.000000
v 5.000000 395.000000 10.000000
v -5.000000 395.000000 10.000000
v -95.000000 395.000000 10.000000
v -105.000000 395.000000 10.000000
v -195.000000 395.000000 10.000000
v -205.000000 395.000000 10.000000
v -295.000000 395.000000 10.000000
v -305.000000 395.000000 10.000000
v 395.000000 -395.000000 10.000000
v 395.000000 -305.000000 10.000000
v 395.000000 -295.000000 10.000000
v 395.000000 -205.000000 10.000000
v 395.000000 -195.000000 10.000000
v 395.000000 -105.000000 10.000000
v 395.000000 -5.000000 10.000000
v 395.000000 -95.000000 10.000000
v 395.000000 5.000000 10.000000
v 395.000000 95.000000 10.000000
v 395.000000 105.000000 10.000000
v 395.000000 195.000000 10.000000
v 395.000000 295.000000 10.000000
v 395.000000 205.000000 10.000000
v 395.000000 305.000000 10.000000
v -305.000000 -395.000000 10.000000
v -295.000000 -395.000000 10.000000
v -205.000000 -395.000000 10.000000
v -195.000000 -395.000000 10.000000
v -105.000000 -395.000000 10.000000
v -95.000000 -395.000000 10.000000
v -5.000000 -395.000000 10.000000
v 5.000000 -395.000000 10.000000
v 95.000000 -395.000000 10.000000
v 105.000000 -395.000000 10.000000
v 195.000000 -395.000000 10.000000
v 205.000000 -395.000000 10.000000
v 295.000000 -395.000000 10.000000
v 305.000000 -395.000000 10.000000
v -300.000000 300.000000 5.000000
v -305.000000 305.000000 10.000000
v -300.000000 200.000000 5.000000
v -305.000000 205.000000 10.000000
v -305.000000 295.000000 10.000000
v -300.000000 100.000000 5.000000
v -305.000000 105.000000 10.000000
v -305.000000 195.000000 10.000000
v -300.000000 0.000000 5.000000
v -305.000000 5.000000 10.000000
v -305.000000 95.000000 10.000000
v -300.000000 -100.000000 5.000000
v -305.000000 -95.000000 10.000000
v -305.000000 -5.000000 10.000000
v -300.000000 -200.000000 5.000000
v -305.000000 -195.000000 10.000000
v -305.000000 -105.000000 10.000000
v -300.000000 -300.000000 5.000000
v -305.000000 -295.000000 10.000000
v -305.000000 -205.000000 10.000000
v -305.000000 -305.000000 10.000000
v 300.000000 300.000000 5.000000
v 305.000000 305.000000 10.000000
v 200.000000 300.000000 5.000000
v 205.000000 305.000000 10.000000
v 295.000000 305.000000 10.000000
v 100.000000 300.000000 5.000000
v 105.000000 305.000000 10.000000
v 195.000000 305.000000 10.000000
v 0.000000 300.000000 5.000000
v 5.000000 305.000000 10.000000
v 95.000000 305.000000 10.000000
v -100.000000 300.000000 5.000000
v -95.000000 305.000000 10.000000
v -5.000000 305.000000 10.000000
v -200.000000 300.000000 5.000000
v -195.000000 305.000000 10.000000
v -105.000000 305.000000 10.000000
v -295.000000 305.000000 10.000000
v -205.000000 305.000000 10.000000
v 305.000000 -305.000000 10.000000
v 300.000000 -300.000000 5.000000
v 305.000000 -205.000000 10.000000
v 300.000000 -200.000000 5.000000
v 305.000000 -295.000000 10.000000
v 305.000000 -105.000000 10.000000
v 300.000000 -100.000000 5.000000
v 305.000000 -195.000000 10.000000
v 305.000000 -5.000000 10.000000
v 300.000000 0.000000 5.000000
v 305.000000 -95.000000 10.000000
v 305.000000 95.000000 10.000000
v 300.000000 100.000000 5.000000
v 305.000000 5.000000 10.000000
v 305.000000 195.000000 10.000000
v 300.000000 200.000000 5.000000
v 305.000000 105.000000 10.000000
v 305.000000 295.000000 10.000000
v 305.000000 205.000000 10.000000
v -205.000000 -305.000000 10.000000
v -200.000000 -300.000000 5.000000
v -295.000000 -305.000000 10.000000
v -105.000000 -305.000000 10.000000
v -100.000000 -300.000000 5.000000
v -195.000000 -305.000000 10.000000
v -5.000000 -305.000000 10.000000
v 0.000000 -300.000000 5.000000
v -95.000000 -305.000000 10.000000
v 95.000000 -305.000000 10.000000
v 100.000000 -300.000000 5.000000
v 5.000000 -305.000000 10.000000
v 195.000000 -305.000000 10.000000
v 200.000000 -300.000000 5.000000
v 105.000000 -305.000000 10.000000
v 295.000000 -305.000000 10.000000
v 205.000000 -305.000000 10.000000
v -295.000000 295.000000 10.000000
v -295.000000 205.000000 10.000000
v -295.000000 195.000000 10.000000
v -295.000000 105.000000 10.000000
v -295.000000 95.000000 10.000000
v -295.000000 5.000000 10.000000
v -295.000000 -5.000000 10.000000
v -295.000000 -95.000000 10.000000
v -295.000000 -105.000000 10.000000
v -295.000000 -195.000000 10.000000
v -295.000000 -205.000000 10.000000
v -295.000000 -295.000000 10.000000
v 295.000000 295.000000 10.000000
v 205.000000 295.000000 10.000000
v 195.000000 295.000000 10.000000
v 105.000000 295.000000 10.000000
v 95.000000 295.000000 10.000000
v 5.000000 295.000000 10.000000
v -5.000000 295.000000 10.000000
v -95.000000 295.000000 10.000000
v -105.000000 295.000000 10.000000
v -195.000000 295.000000 10.000000
v -205.000000 295.000000 10.000000
v 295.000000 -295.000000 10.000000
v 295.000000 -205.000000 10.000000
v 295.000000 -105.000000 10.000000
v 295.000000 -195.000000 10.000000
v 295.000000 -95.000000 10.000000
v 295.000000 -5.000000 10.000000
v 295.000000 95.000000 10.000000
v 295.000000 5.000000 10.000000
v 295.000000 195.000000 10.000000
v 295.000000 105.000000 10.000000
v 295.000000 205.000000 10.000000
v -205.000000 -295.000000 10.000000
v -195.000000 -295.000000 10.000000
v -105.000000 -295.000000 10.000000
v -95.000000 -295.000000 10.000000
v -5.000000 -295.000000 10.000000
v 5.000000 -295.000000 10.000000
v 95.000000 -295.000000 10.000000
v 105.000000 -295.000000 10.000000
v 195.000000 -295.000000 10.000000
v 205.000000 -295.000000 10.000000
v -200.000000 200.000000 5.000000
v -205.000000 205.000000 10.000000
v -200.000000 100.000000 5.000000
v -205.000000 105.000000 10.000000
v -205.000000 195.000000 10.000000
v -200.000000 0.000000 5.000000
v -205.000000 5.000000 10.000000
v -205.000000 95.000000 10.000000
v -200.000000 -100.000000 5.000000
v -205.000000 -95.000000 10.000000
v -205.000000 -5.000000 10.000000
v -200.000000 -200.000000 5.000000
v -205.000000 -195.000000 10.000000
v -205.000000 -105.000000 10.000000
v -205.000000 -205.000000 10.000000
v 200.000000 200.000000 5.000000
v 205.000000 205.000000 10.000000
v 100.000000 200.000000 5.000000
v 105.000000 205.000000 10.000000
v 195.000000 205.000000 10.000000
v 0.000000 200.000000 5.000000
v 5.000000 205.000000 10.000000
v 95.000000 205.000000 10.000000
v -100.000000 200.000000 5.000000
v -95.000000 205.000000 10.000000
v -5.000000 205.000000 10.000000
v -195.000000 205.000000 10.000000
v -105.000000 205.000000 10.000000
v 205.000000 -205.000000 10.000000
v 200.000000 -200.000000 5.000000
v 205.000000 -105.000000 10.000000
v 200.000000 -100.000000 5.000000
v 205.000000 -195.000000 10.000000
v 205.000000 -5.000000 10.000000
v 200.000000 0.000000 5.000000
v 205.000000 -95.000000 10.000000
v 205.000000 95.000000 10.000000
v 200.000000 100.000000 5.000000
v 205.000000 5.000000 10.000000
v 205.000000 195.000000 10.000000
v 205.000000 105.000000 10.000000
v -105.000000 -205.000000 10.000000
v -100.000000 -200.000000 5.000000
v -195.000000 -205.000000 10.000000
v -5.000000 -205.000000 10.000000
v 0.000000 -200.000000 5.000000
v -95.000000 -205.000000 10.000000
v 95.000000 -205.000000 10.000000
v 100.000000 -200.000000 5.000000
v 5.000000 -205.000000 10.000000
v 195.000000 -205.000000 10.000000
v 105.000000 -205.000000 10.000000
v -195.000000 195.000000 10.000000
v -195.000000 105.000000 10.000000
v -195.000000 95.000000 10.000000
v -195.000000 5.000000 10.000000
v -195.000000 -5.000000 10.000000
v -195.000000 -95.000000 10.000000
v -195.000000 -105.000000 10.000000
v -195.000000 -195.000000 10.000000
v 195.000000 195.000000 10.000000
v 105.000000 195.000000 10.000000
v 95.000000 195.000000 10.000000
v 5.000000 195.000000 10.000000
v -5.000000 195.000000 10.000000
v -95.000000 195.000000 10.000000
v -105.000000 195.000000 10.000000
v 195.000000 -105.000000 10.000000
v 195.000000 -195.000000 10.000000
v 195.000000 -5.000000 10.000000
v 195.000000 -95.000000 10.000000
v 195.000000 95.000000 10.000000
v 195.000000 5.000000 10.000000
v 195.000000 105.000000 10.000000
v -105.000000 -195.000000 10.000000
v -95.000000 -195.000000 10.000000
v -5.000000 -195.000000 10.000000
v 5.000000 -195.000000 10.000000
v 95.000000 -195.000000 10.000000
v 105.000000 -195.000000 10.000000
v -100.000000 100.000000 5.000000
v -105.000000 105.000000 10.000000
v -100.000000 0.000000 5.000000
v -105.000000 5.000000 10.000000
v -105.000000 95.000000 10.000000
v -100.000000 -100.000000 5.000000
v -105.000000 -95.000000 10.000000
v -105.000000 -5.000000 10.000000
v -105.000000 -105.000000 10.000000
v 100.000000 100.000000 5.000000
v 105.000000 105.000000 10.000000
v 0.000000 100.000000 5.000000
v 5.000000 105.000000 10.000000
v 95.000000 105.000000 10.000000
v -95.000000 105.000000 10.000000
v -5.000000 105.000000 10.000000
v 105.000000 -105.000000 10.000000
v 100.000000 -100.000000 5.000000
v 105.000000 -5.000000 10.000000
v 100.000000 0.000000 5.000000
v 105.000000 -95.000000 10.000000
v 105.000000 95.000000 10.000000
v 105.000000 5.000000 10.000000
v -5.000000 -105.000000 10.000000
v 0.000000 -100.000000 5.000000
v -95.000000 -105.000000 10.000000
v 95.000000 -105.000000 10.000000
v 5.000000 -105.000000 10.000000
v -95.000000 95.000000 10.000000
v -95.000000 5.000000 10.000000
v -95.000000 -5.000000 10.000000
v -95.000000 -95.000000 10.000000
v 95.000000 95.000000 10.000000
v 5.000000 95.000000 10.000000
v -5.000000 95.000000 10.000000
v 95.000000 -5.000000 10.000000
v 95.000000 -95.000000 10.000000
v 95.000000 5.000000 10.000000
v -5.000000 -95.000000 10.000000
v 5.000000 -95.000000 10.000000
v 0.000000 0.000000 5.000000
v -5.000000 5.000000 10.000000
v -5.000000 -5.000000 10.000000
v 5.000000 5.000000 10.000000
v 5.000000 -5.000000 10.000000
vn 0.000000 0.000000 -1.000000
vn 0.000000 0.000000 -1.000000
vn 0.000000 0.000000 -1.000000
vn 0.000000 -0.000000 -1.000000
vn 0.000000 -0.000000 -1.000000
vn 0.000000 0.000000 -1.000000
vn 0.000000 0.000000 -1.000000
vn 0.000000 0.000000 -1.000000
vn 0.000000 0.000000 -1.000000
vn 0.000000 0.000000 -1.000000
vn 0.000000 -1.000000 0.000000
vn 0.000000 -1.000000 0.000000
vn 1.000000 0.000000 0.000000
vn 1.000000 -0.000000 0.000000
vn 0.000000 1.000000 -0.000000
vn 0.000000 1.000000 0.000000
vn -1.000000 0.000000 0.000000
vn -1.000000 -0.000000 0.000000
vn 0.000000 0.000000 1.000000
vn 0.000000 0.000000 1.000000
vn 0.000000 0.000000 1.000000
vn 0.000000 0.000000 1.000000
vn 0.000000 0.000000 1.000000
vn 0.000000 0.000000 1.000000
vn 0.000000 0.000000 1.000000
vn 0.000000 0.000000 1.000000
vn 1.000000 0.000000 0.000000
vn 1.000000 -0.000000 0.000000
vn 1.000000 0.000000 0.000000
vn 1.000000 0.000000 0.000000
vn 1.000000 -0.000000 0.000000
vn 1.000000 0.000000 0.000000
vn 1.000000 0.000000 0.000000
vn 1.000000 0.000000 0.000000
vn 1.000000 0.000000 -0.000000
vn 1.000000 0.000000 0.000000
vn 1.000000 0.000000 0.000000
vn 1.000000 0.000000 -0.000000
vn 1.000000 0.000000 0.000000
vn 1.000000 0.000000 -0.000000
vn 1.000000 -0.000000 0.000000
vn 1.000000 0.000000 -0.000000
vn 1.000000 0.000000 -0.000000
vn 1.000000 0.000000 -0.000000
vn 1.000000 0.000000 0.000000
vn 1.000000 0.000000 0.000000
vn 1.000000 0.000000 0.000000
vn 1.000000 0.000000 0.000000
vn 1.000000 -0.000000 0.000000
vn 1.000000 0.000000 0.000000
vn 1.000000 0.000000 0.000000
vn 1.000000 0.000000 0.000000
vn 1.000000 0.000000 0.000000
vn 1.000000 0.000000 0.000000
vn 1.000000 0.000000 0.000000
vn 0.000000 -1.000000 0.000000
vn 0.000000 -1.000000 0.000000
vn 0.000000 -1.000000 0.000000
vn 0.000000 -1.000000 0.000000
vn 0.000000 -1.000000 0.000000
vn 0.000000 -1.000000 0.000000
vn 0.000000 -1.000000 0.000000
vn 0.000000 -1.000000 0.000000
vn 0.000000 -1.000000 0.000000
vn 0.000000 -1.000000 0.000000
vn 0.000000 -1.000000 0.000000
vn 0.000000 -1.000000 0.000000
vn 0.000000 -1.000000 0.000000
vn 0.000000 -1.000000 0.000000
vn 0.000000 -1.000000 0.000000
vn 0.000000 -1.000000 0.000000
vn 0.000000 -1.000000 0.000000
vn 0.000000 -1.000000 0.000000
vn 0.000000 -1.000000 0.000000
vn 0.000000 -1.000000 0.000000
vn 0.000000 -1.000000 0.000000
vn 0.000000 -1.000000 0.000000
vn 0.000000 -1.000000 0.000000
vn 0.000000 -1.000000 0.000000
vn 0.000000 -1.000000 0.000000
vn 0.000000 -1.000000 0.000000
vn 0.000000 -1.000000 0.000000
vn 0.000000 -1.000000 0.000000
vn 0.000000 -1.000000 0.000000
vn -1.000000 0.000000 0.000000
vn -1.000000 0.000000 0.000000
vn -1.000000 0.000000 0.000000
vn -1.000000 0.000000 0.000000
vn -1.000000 0.000000 0.000000
vn -1.000000 0.000000 0.000000
vn -1.000000 0.000000 0.000000
vn -1.000000 0.000000 0.000000
vn -1.000000 0.000000 0.000000
vn -1.000000 0.000000 0.000000
vn -1.000000 0.000000 0.000000
vn -1.000000 0.000000 0.000000
vn -1.000000 0.000000 0.000000
vn -1.000000 0.000000 0.000000
vn -1.000000 -0.000000 0.000000
vn -1.000000 0.000000 0.000000
vn -1.000000 0.000000 0.000000
vn -1.000000 0.000000 0.000000
vn -1.000000 0.000000 0.000000
vn -1.000000 0.000000 0.000000
vn -1.000000 0.000000 0.000000
vn -1.000000 0.000000 0.000000
vn -1.000000 -0.000000 0.000000
vn -1.000000 0.000000 0.000000
vn -1.000000 0.000000 0.000000
vn -1.000000 0.000000 0.000000
vn -1.000000 0.000000 0.000000
vn -1.000000 0.000000 0.000000
vn -1.000000 0.000000 0.000000
vn 0.000000 1.000000 0.000000
vn 0.000000 1.000000 0.000000
vn 0.000000 1.000000 -0.000000
vn 0.000000 1.000000 0.000000
vn 0.000000 1.000000 0.000000
vn 0.000000 1.000000 -0.000000
vn 0.000000 1.000000 0.000000
vn 0.000000 1.000000 0.000000
vn 0.000000 1.000000 -0.000000
vn 0.000000 1.000000 0.000000
vn 0.000000 1.000000 0.000000
vn 0.000000 1.000000 -0.000000
vn 0.000000 1.000000 0.000000
vn 0.000000 1.000000 -0.000000
vn 0.000000 1.000000 0.000000
vn 0.000000 1.000000 -0.000000
vn 0.000000 1.000000 -0.000000
vn 0.000000 1.000000 -0.000000
vn 0.000000 1.000000 0.000000
vn 0.000000 1.000000 0.000000
vn 0.000000 1.000000 0.000000
vn 0.000000 1.000000 0.000000
vn 0.000000 1.000000 0.000000
vn 0.000000 1.000000 0.000000
vn 0.000000 1.000000 0.000000
vn 0.000000 1.000000 0.000000
vn 0.000000 1.000000 0.000000
vn 0.000000 1.000000 0.000000
vn 0.000000 1.000000 -0.000000
vn 0.000000 0.000000 1.000000
vn 0.000000 0.000000 1.000000
vn 0.000000 -0.707107 0.707107
vn 0.000000 -0.707107 0.707107
vn -0.000000 0.707107 0.707107
vn 0.000000 0.707107 0.707107
vn 0.000000 0.000000 1.000000
vn 0.000000 0.000000 1.000000
vn 0.000000 -0.707107 0.707107
vn 0.000000 -0.707107 0.707107
vn -0.000000 0.707107 0.707107
vn 0.000000 0.707107 0.707107
vn 0.000000 0.000000 1.000000
vn 0.000000 0.000000 1.000000
vn 0.000000 -0.707107 0.707107
vn 0.000000 -0.707107 0.707107
vn -0.000000 0.707107 0.707107
vn 0.000000 0.707107 0.707107
vn 0.000000 0.000000 1.000000
vn 0.000000 0.000000 1.000000
vn 0.000000 -0.707107 0.707107
vn 0.000000 -0.707107 0.707107
vn -0.000000 0.707107 0.707107
vn 0.000000 0.707107 0.707107
vn 0.000000 0.000000 1.000000
vn 0.000000 0.000000 1.000000
vn 0.000000 -0.707107 0.707107
vn 0.000000 -0.707107 0.707107
vn -0.000000 0.707107 0.707107
vn 0.000000 0.707107 0.707107
vn 0.000000 0.000000 1.000000
vn 0.000000 0.000000 1.000000
vn 0.000000 -0.707107 0.707107
vn 0.000000 -0.707107 0.707107
vn -0.000000 0.707107 0.707107
vn 0.000000 0.707107 0.707107
vn 0.000000 0.000000 1.000000
vn 0.000000 0.000000 1.000000
vn 0.000000 -0.707107 0.707107
vn 0.000000 -0.707107 0.707107
vn -0.000000 0.707107 0.707107
vn 0.000000 0.707107 0.707107
vn 0.000000 0.000000 1.000000
vn 0.000000 0.000000 1.000000
vn 0.000000 -0.707107 0.707107
vn 0.000000 -0.707107 0.707107
vn -0.000000 0.707107 0.707107
vn 0.000000 0.707107 0.707107
vn 0.000000 0.000000 1.000000
vn 0.000000 0.000000 1.000000
vn 0.000000 -0.707107 0.707107
vn 0.000000 -0.707107 0.707107
vn -0.000000 0.707107 0.707107
vn 0.000000 0.707107 0.707107
vn 0.000000 0.000000 1.000000
vn 0.000000 0.000000 1.000000
vn 0.000000 0.000000 1.000000
vn 0.000000 0.000000 1.000000
vn -0.707107 0.000000 0.707107
vn -0.707107 0.000000 0.707107
vn 0.707107 0.000000 0.707107
vn 0.707107 0.000000 0.707107
vn 0.000000 0.000000 1.000000
vn 0.000000 0.000000 1.000000
vn -0.707107 0.000000 0.707107
vn -0.707107 0.000000 0.707107
vn 0.707107 0.000000 0.707107
vn 0.707107 0.000000 0.707107
vn 0.000000 0.000000 1.000000
vn 0.000000 0.000000 1.000000
vn -0.707107 0.000000 0.707107
vn -0.707107 0.000000 0.707107
vn 0.707107 0.000000 0.707107
vn 0.707107 0.000000 0.707107
vn 0.000000 0.000000 1.000000
vn 0.000000 0.000000 1.000000
vn -0.707107 0.000000 0.707107
vn -0.707107 0.000000 0.707107
vn 0.707107 0.000000 0.707107
vn 0.707107 0.000000 0.707107
vn 0.000000 0.000000 1.000000
vn 0.000000 0.000000 1.000000
vn -0.707107 0.000000 0.707107
vn -0.707107 0.000000 0.707107
vn 0.707107 0.000000 0.707107
vn 0.707107 0.000000 0.707107
vn 0.000000 0.000000 1.000000
vn 0.000000 0.000000 1.000000
vn -0.707107 0.000000 0.707107
vn -0.707107 0.000000 0.707107
vn 0.707107 0.000000 0.707107
vn 0.707107 0.000000 0.707107
vn 0.000000 0.000000 1.000000
vn 0.000000 0.000000 1.000000
vn -0.707107 0.000000 0.707107
vn -0.707107 0.000000 0.707107
vn 0.707107 0.000000 0.707107
vn 0.707107 0.000000 0.707107
vn 0.000000 0.000000 1.000000
vn 0.000000 0.000000 1.000000
vn -0.707107 0.000000 0.707107
vn -0.707107 0.000000 0.707107
vn 0.707107 0.000000 0.707107
vn 0.707107 0.000000 0.707107
vn 0.000000 0.000000 1.000000
vn 0.000000 0.000000 1.000000
vn -0.707107 0.000000 0.707107
vn -0.707107 0.000000 0.707107
vn 0.707107 0.000000 0.707107
vn 0.707107 0.000000 0.707107
vn 0.000000 0.000000 1.000000
vn 0.000000 0.000000 1.000000
vn 0.000000 0.707107 0.707107
vn 0.000000 0.707107 0.707107
vn 0.000000 -0.707107 0.707107
vn 0.000000 -0.707107 0.707107
vn 0.000000 0.000000 1.000000
vn 0.000000 0.000000 1.000000
vn 0.000000 0.707107 0.707107
vn 0.000000 0.707107 0.707107
vn 0.000000 -0.707107 0.707107
vn 0.000000 -0.707107 0.707107
vn 0.000000 0.000000 1.000000
vn 0.000000 0.000000 1.000000
vn 0.000000 0.707107 0.707107
vn 0.000000 0.707107 0.707107
vn 0.000000 -0.707107 0.707107
vn 0.000000 -0.707107 0.707107
vn 0.000000 0.000000 1.000000
vn 0.000000 0.000000 1.000000
vn 0.000000 0.707107 0.707107
vn 0.000000 0.707107 0.707107
vn 0.000000 -0.707107 0.707107
vn 0.000000 -0.707107 0.707107
vn 0.000000 0.000000 1.000000
vn 0.000000 0.000000 1.000000
vn 0.000000 0.707107 0.707107
vn 0.000000 0.707107 0.707107
vn 0.000000 -0.707107 0.707107
vn 0.000000 -0.707107 0.707107
vn 0.000000 0.000000 1.000000
vn 0.000000 0.000000 1.000000
vn 0.000000 0.707107 0.707107
vn 0.000000 0.707107 0.707107
vn 0.000000 -0.707107 0.707107
vn 0.000000 -0.707107 0.707107
vn 0.000000 0.000000 1.000000
vn 0.000000 0.000000 1.000000
vn 0.000000 0.707107 0.707107
vn 0.000000 0.707107 0.707107
vn 0.000000 -0.707107 0.707107
vn 0.000000 -0.707107 0.707107
vn 0.000000 0.000000 1.000000
vn 0.000000 0.000000 1.000000
vn 0.000000 0.707107 0.707107
vn 0.000000 0.707107 0.707107
vn 0.000000 -0.707107 0.707107
vn 0.000000 -0.707107 0.707107
vn 0.000000 0.000000 1.000000
vn 0.000000 0.000000 1.000000
vn 0.000000 0.707107 0.707107
vn 0.000000 0.707107 0.707107
vn 0.000000 -0.707107 0.707107
vn 0.000000 -0.707107 0.707107
vn 0.707107 -0.000000 0.707107
vn 0.707107 0.000000 0.707107
vn -0.707107 0.000000 0.707107
vn -0.707107 0.000000 0.707107
vn 0.000000 0.000000 1.000000
vn 0.000000 0.000000 1.000000
vn 0.707107 -0.000000 0.707107
vn 0.707107 0.000000 0.707107
vn -0.707107 0.000000 0.707107
vn -0.707107 0.000000 0.707107
vn 0.000000 0.000000 1.000000
vn 0.000000 0.000000 1.000000
vn 0.707107 -0.000000 0.707107
vn 0.707107 0.000000 0.707107
vn -0.707107 0.000000 0.707107
vn -0.707107 0.000000 0.707107
vn 0.000000 0.000000 1.000000
vn 0.000000 0.000000 1.000000
vn 0.707107 -0.000000 0.707107
vn 0.707107 0.000000 0.707107
vn -0.707107 0.000000 0.707107
vn -0.707107 0.000000 0.707107
vn 0.000000 0.000000 1.000000
vn 0.000000 0.000000 1.000000
vn 0.707107 -0.000000 0.707107
vn 0.707107 0.000000 0.707107
vn -0.707107 0.000000 0.707107
vn -0.707107 0.000000 0.707107
vn 0.000000 0.000000 1.000000
vn 0.000000 0.000000 1.000000
vn 0.707107 -0.000000 0.707107
vn 0.707107 0.000000 0.707107
vn -0.707107 0.000000 0.707107
vn -0.707107 0.000000 0.707107
vn 0.000000 0.000000 1.000000
vn 0.000000 0.000000 1.000000
vn 0.707107 -0.000000 0.707107
vn 0.707107 0.000000 0.707107
vn -0.707107 0.000000 0.707107
vn -0.707107 0.000000 0.707107
vn 0.000000 0.000000 1.000000
vn 0.000000 0.000000 1.000000
vn 0.707107 -0.000000 0.707107
vn 0.707107 0.000000 0.707107
vn -0.707107 0.000000 0.707107
vn -0.707107 0.000000 0.707107
vn 0.000000 0.000000 1.000000
vn 0.000000 0.000000 1.000000
vn 0.707107 -0.000000 0.707107
vn 0.707107 0.000000 0.707107
vn -0.707107 0.000000 0.707107
vn -0.707107 0.000000 0.707107
vn 0.707107 0.000000 0.707107
vn 0.707107 0.000000 0.707107
vn 0.707107 0.000000 0.707107
vn 0.707107 0.000000 0.707107
vn 0.707107 0.000000 0.707107
vn 0.707107 0.000000 0.707107
vn 0.707107 0.000000 0.707107
vn 0.707107 0.000000 0.707107
vn 0.707107 0.000000 0.707107
vn 0.707107 0.000000 0.707107
vn 0.707107 0.000000 0.707107
vn 0.707107 0.000000 0.707107
vn 0.707107 0.000000 0.707107
vn 0.707107 0.000000 0.707107
vn 0.707107 0.000000 0.707107
vn 0.707107 0.000000 0.707107
vn 0.000000 -0.707107 0.707107
vn 0.000000 -0.707107 0.707107
vn 0.000000 -0.707107 0.707107
vn 0.000000 -0.707107 0.707107
vn 0.000000 -0.707107 0.707107
vn 0.000000 -0.707107 0.707107
vn 0.000000 -0.707107 0.707107
vn 0.000000 -0.707107 0.707107
vn 0.000000 -0.707107 0.707107
vn 0.000000 -0.707107 0.707107
vn 0.000000 -0.707107 0.707107
vn 0.000000 -0.707107 0.707107
vn 0.000000 -0.707107 0.707107
vn 0.000000 -0.707107 0.707107
vn 0.000000 -0.707107 0.707107
vn 0.000000 -0.707107 0.707107
vn -0.707107 0.000000 0.707107
vn -0.707107 0.000000 0.707107
vn -0.707107 0.000000 0.707107
vn -0.707107 0.000000 0.707107
vn -0.707107 0.000000 0.707107
vn -0.707107 0.000000 0.707107
vn -0.707107 0.000000 0.707107
vn -0.707107 0.000000 0.707107
vn -0.707107 0.000000 0.707107
vn -0.707107 0.000000 0.707107
vn -0.707107 0.000000 0.707107
vn -0.707107 0.000000 0.707107
vn -0.707107 0.000000 0.707107
vn -0.707107 0.000000 0.707107
vn -0.707107 0.000000 0.707107
vn -0.707107 0.000000 0.707107
vn 0.000000 0.707107 0.707107
vn 0.000000 0.707107 0.707107
vn 0.000000 0.707107 0.707107
vn 0.000000 0.707107 0.707107
vn 0.000000 0.707107 0.707107
vn 0.000000 0.707107 0.707107
vn 0.000000 0.707107 0.707107
vn 0.000000 0.707107 0.707107
vn 0.000000 0.707107 0.707107
vn 0.000000 0.707107 0.707107
vn 0.000000 0.707107 0.707107
vn 0.000000 0.707107 0.707107
vn 0.000000 0.707107 0.707107
vn 0.000000 0.707107 0.707107
vn -0.000000 0.707107 0.707107
vn 0.000000 0.707107 0.707107
vn -0.707107 0.000000 0.707107
vn -0.707107 0.000000 0.707107
vn -0.707107 0.000000 0.707107
vn -0.707107 0.000000 0.707107
vn -0.707107 0.000000 0.707107
vn -0.707107 0.000000 0.707107
vn -0.707107 0.000000 0.707107
vn -0.707107 0.000000 0.707107
vn -0.707107 0.000000 0.707107
vn -0.707107 0.000000 0.707107
vn -0.707107 0.000000 0.707107
vn -0.707107 0.000000 0.707107
vn -0.707107 0.000000 0.707107
vn -0.707107 0.000000 0.707107
vn -0.707107 0.000000 0.707107
vn -0.707107 0.000000 0.707107
vn 0.000000 0.707107 0.707107
vn 0.000000 0.707107 0.707107
vn 0.000000 0.707107 0.707107
vn 0.000000 0.707107 0.707107
vn 0.000000 0.707107 0.707107
vn 0.000000 0.707107 0.707107
vn 0.000000 0.707107 0.707107
vn 0.000000 0.707107 0.707107
vn 0.000000 0.707107 0.707107
vn 0.000000 0.707107 0.707107
vn 0.000000 0.707107 0.707107
vn 0.000000 0.707107 0.707107
vn 0.000000 0.707107 0.707107
vn 0.000000 0.707107 0.707107
vn 0.000000 0.707107 0.707107
vn 0.000000 0.707107 0.707107
vn 0.707107 -0.000000 0.707107
vn 0.707107 0.000000 0.707107
vn 0.707107 -0.000000 0.707107
vn 0.707107 0.000000 0.707107
vn 0.707107 -0.000000 0.707107
vn 0.707107 0.000000 0.707107
vn 0.707107 0.000000 0.707107
vn 0.707107 0.000000 0.707107
vn 0.707107 -0.000000 0.707107
vn 0.707107 0.000000 0.707107
vn 0.707107 -0.000000 0.707107
vn 0.707107 0.000000 0.707107
vn 0.707107 0.000000 0.707107
vn 0.707107 0.000000 0.707107
vn 0.707107 0.000000 0.707107
vn 0.707107 0.000000 0.707107
vn 0.000000 -0.707107 0.707107
vn 0.000000 -0.707107 0.707107
vn 0.000000 -0.707107 0.707107
vn 0.000000 -0.707107 0.707107
vn 0.000000 -0.707107 0.707107
vn 0.000000 -0.707107 0.707107
vn 0.000000 -0.707107 0.707107
vn 0.000000 -0.707107 0.707107
vn 0.000000 -0.707107 0.707107
vn 0.000000 -0.707107 0.707107
vn 0.000000 -0.707107 0.707107
vn 0.000000 -0.707107 0.707107
vn 0.000000 -0.707107 0.707107
vn 0.000000 -0.707107 0.707107
vn 0.000000 -0.707107 0.707107
vn 0.000000 -0.707107 0.707107
vn 0.000000 -0.707107 0.707107
vn 0.000000 -0.707107 0.707107
vn 0.000000 0.000000 1.000000
vn 0.000000 0.000000 1.000000
vn 0.000000 -0.707107 0.707107
vn 0.000000 -0.707107 0.707107
vn 0.000000 0.000000 1.000000
vn 0.000000 0.000000 1.000000
vn 0.000000 0.707107 0.707107
vn 0.000000 0.707107 0.707107
vn 0.000000 -0.707107 0.707107
vn 0.000000 -0.707107 0.707107
vn 0.000000 0.000000 1.000000
vn 0.000000 0.000000 1.000000
vn 0.000000 0.707107 0.707107
vn 0.000000 0.707107 0.707107
vn 0.000000 -0.707107 0.707107
vn 0.000000 -0.707107 0.707107
vn 0.000000 0.000000 1.000000
vn 0.000000 0.000000 1.000000
vn 0.000000 0.707107 0.707107
vn 0.000000 0.707107 0.707107
vn 0.000000 -0.707107 0.707107
vn 0.000000 -0.707107 0.707107
vn 0.000000 0.000000 1.000000
vn 0.000000 0.000000 1.000000
vn 0.000000 0.707107 0.707107
vn 0.000000 0.707107 0.707107
vn 0.000000 -0.707107 0.707107
vn 0.000000 -0.707107 0.707107
vn 0.000000 0.000000 1.000000
vn 0.000000 0.000000 1.000000
vn 0.000000 0.707107 0.707107
vn 0.000000 0.707107 0.707107
vn 0.000000 -0.707107 0.707107
vn 0.000000 -0.707107 0.707107
vn 0.000000 0.000000 1.000000
vn 0.000000 0.000000 1.000000
vn 0.000000 0.707107 0.707107
vn 0.000000 0.707107 0.707107
vn 0.000000 0.000000 1.000000
vn 0.000000 0.000000 1.000000
vn 0.000000 0.707107 0.707107
vn 0.000000 0.707107 0.707107
vn -0.707107 0.000000 0.707107
vn -0.707107 0.000000 0.707107
vn 0.000000 0.000000 1.000000
vn 0.000000 0.000000 1.000000
vn -0.707107 0.000000 0.707107
vn -0.707107 0.000000 0.707107
vn 0.000000 0.000000 1.000000
vn 0.000000 0.000000 1.000000
vn 0.707107 0.000000 0.707107
vn 0.707107 0.000000 0.707107
vn -0.707107 0.000000 0.707107
vn -0.707107 0.000000 0.707107
vn 0.000000 0.000000 1.000000
vn 0.000000 0.000000 1.000000
vn 0.707107 0.000000 0.707107
vn 0.707107 0.000000 0.707107
vn -0.707107 0.000000 0.707107
vn -0.707107 0.000000 0.707107
vn 0.000000 0.000000 1.000000
vn 0.000000 0.000000 1.000000
vn 0.707107 -0.000000 0.707107
vn 0.707107 0.000000 0.707107
vn -0.707107 0.000000 0.707107
vn -0.707107 0.000000 0.707107
vn 0.000000 0.000000 1.000000
vn 0.000000 0.000000 1.000000
vn 0.707107 0.000000 0.707107
vn 0.707107 0.000000 0.707107
vn -0.707107 0.000000 0.707107
vn -0.707107 0.000000 0.707107
vn 0.000000 0.000000 1.000000
vn 0.000000 0.000000 1.000000
vn 0.707107 0.000000 0.707107
vn 0.707107 0.000000 0.707107
vn -0.707107 0.000000 0.707107
vn -0.707107 0.000000 0.707107
vn 0.000000 0.000000 1.000000
vn 0.000000 0.000000 1.000000
vn 0.707107 0.000000 0.707107
vn 0.707107 0.000000 0.707107
vn 0.707107 0.000000 0.707107
vn 0.707107 0.000000 0.707107
vn -0.000000 0.707107 0.707107
vn 0.000000 0.707107 0.707107
vn 0.000000 0.000000 1.000000
vn 0.000000 0.000000 1.000000
vn 0.000000 0.707107 0.707107
vn 0.000000 0.707107 0.707107
vn 0.000000 0.000000 1.000000
vn 0.000000 0.000000 1.000000
vn 0.000000 -0.707107 0.707107
vn 0.000000 -0.707107 0.707107
vn 0.000000 0.707107 0.707107
vn 0.000000 0.707107 0.707107
vn 0.000000 0.000000 1.000000
vn 0.000000 0.000000 1.000000
vn 0.000000 -0.707107 0.707107
vn 0.000000 -0.707107 0.707107
vn 0.000000 0.707107 0.707107
vn 0.000000 0.707107 0.707107
vn 0.000000 0.000000 1.000000
vn 0.000000 0.000000 1.000000
vn 0.000000 -0.707107 0.707107
vn 0.000000 -0.707107 0.707107
vn 0.000000 0.707107 0.707107
vn 0.000000 0.707107 0.707107
vn 0.000000 0.000000 1.000000
vn 0.000000 0.000000 1.000000
vn 0.000000 -0.707107 0.707107
vn 0.000000 -0.707107 0.707107
vn 0.000000 0.707107 0.707107
vn 0.000000 0.707107 0.707107
vn 0.000000 0.000000 1.000000
vn 0.000000 0.000000 1.000000
vn 0.000000 -0.707107 0.707107
vn 0.000000 -0.707107 0.707107
vn 0.000000 0.707107 0.707107
vn 0.000000 0.707107 0.707107
vn 0.000000 0.000000 1.000000
vn 0.000000 0.000000 1.000000
vn 0.000000 -0.707107 0.707107
vn 0.000000 -0.707107 0.707107
vn 0.000000 -0.707107 0.707107
vn 0.000000 -0.707107 0.707107
vn 0.707107 0.000000 0.707107
vn 0.707107 0.000000 0.707107
vn 0.707107 0.000000 0.707107
vn 0.707107 0.000000 0.707107
vn 0.000000 0.000000 1.000000
vn 0.000000 0.000000 1.000000
vn -0.707107 0.000000 0.707107
vn -0.707107 0.000000 0.707107
vn 0.707107 0.000000 0.707107
vn 0.707107 0.000000 0.707107
vn 0.000000 0.000000 1.000000
vn 0.000000 0.000000 1.000000
vn -0.707107 0.000000 0.707107
vn -0.707107 0.000000 0.707107
vn 0.707107 0.000000 0.707107
vn 0.707107 0.000000 0.707107
vn 0.000000 0.000000 1.000000
vn 0.000000 0.000000 1.000000
vn -0.707107 0.000000 0.707107
vn -0.707107 0.000000 0.707107
vn 0.707107 0.000000 0.707107
vn 0.707107 0.000000 0.707107
vn 0.000000 0.000000 1.000000
vn 0.000000 0.000000 1.000000
vn -0.707107 0.000000 0.707107
vn -0.707107 0.000000 0.707107
vn 0.707107 -0.000000 0.707107
vn 0.707107 0.000000 0.707107
vn 0.000000 0.000000 1.000000
vn 0.000000 0.000000 1.000000
vn -0.707107 0.000000 0.707107
vn -0.707107 0.000000 0.707107
vn 0.707107 0.000000 0.707107
vn 0.707107 0.000000 0.707107
vn 0.000000 0.000000 1.000000
vn 0.000000 0.000000 1.000000
vn -0.707107 0.000000 0.707107
vn -0.707107 0.000000 0.707107
vn -0.707107 0.000000 0.707107
vn -0.707107 0.000000 0.707107
vn 0.707107 0.000000 0.707107
vn 0.707107 0.000000 0.707107
vn 0.707107 0.000000 0.707107
vn 0.707107 0.000000 0.707107
vn 0.707107 0.000000 0.707107
vn 0.707107 0.000000 0.707107
vn 0.707107 0.000000 0.707107
vn 0.707107 0.000000 0.707107
vn 0.707107 0.000000 0.707107
vn 0.707107 0.000000 0.707107
vn 0.707107 0.000000 0.707107
vn 0.707107 0.000000 0.707107
vn 0.000000 -0.707107 0.707107
vn 0.000000 -0.707107 0.707107
vn 0.000000 -0.707107 0.707107
vn 0.000000 -0.707107 0.707107
vn 0.000000 -0.707107 0.707107
vn 0.000000 -0.707107 0.707107
vn 0.000000 -0.707107 0.707107
vn 0.000000 -0.707107 0.707107
vn 0.000000 -0.707107 0.707107
vn 0.000000 -0.707107 0.707107
vn 0.000000 -0.707107 0.707107
vn 0.000000 -0.707107 0.707107
vn -0.707107 0.000000 0.707107
vn -0.707107 0.000000 0.707107
vn -0.707107 0.000000 0.707107
vn -0.707107 0.000000 0.707107
vn -0.707107 0.000000 0.707107
vn -0.707107 0.000000 0.707107
vn -0.707107 0.000000 0.707107
vn -0.707107 0.000000 0.707107
vn -0.707107 0.000000 0.707107
vn -0.707107 0.000000 0.707107
vn -0.707107 0.000000 0.707107
vn -0.707107 0.000000 0.707107
vn 0.000000 0.707107 0.707107
vn 0.000000 0.707107 0.707107
vn 0.000000 0.707107 0.707107
vn 0.000000 0.707107 0.707107
vn 0.000000 0.707107 0.707107
vn 0.000000 0.707107 0.707107
vn 0.000000 0.707107 0.707107
vn 0.000000 0.707107 0.707107
vn 0.000000 0.707107 0.707107
vn 0.000000 0.707107 0.707107
vn 0.000000 0.707107 0.707107
vn 0.000000 0.707107 0.707107
vn -0.707107 0.000000 0.707107
vn -0.707107 0.000000 0.707107
vn -0.707107 0.000000 0.707107
vn -0.707107 0.000000 0.707107
vn -0.707107 0.000000 0.707107
vn -0.707107 0.000000 0.707107
vn -0.707107 0.000000 0.707107
vn -0.707107 0.000000 0.707107
vn -0.707107 0.000000 0.707107
vn -0.707107 0.000000 0.707107
vn -0.707107 0.000000 0.707107
vn -0.707107 0.000000 0.707107
vn 0.000000 0.707107 0.707107
vn 0.000000 0.707107 0.707107
vn 0.000000 0.707107 0.707107
vn 0.000000 0.707107 0.707107
vn 0.000000 0.707107 0.707107
vn 0.000000 0.707107 0.707107
vn 0.000000 0.707107 0.707107
vn 0.000000 0.707107 0.707107
vn 0.000000 0.707107 0.707107
vn 0.000000 0.707107 0.707107
vn 0.000000 0.707107 0.707107
vn 0.000000 0.707107 0.707107
vn 0.707107 -0.000000 0.707107
vn 0.707107 0.000000 0.707107
vn 0.707107 0.000000 0.707107
vn 0.707107 0.000000 0.707107
vn 0.707107 -0.000000 0.707107
vn 0.707107 0.000000 0.707107
vn 0.707107 0.000000 0.707107
vn 0.707107 0.000000 0.707107
vn 0.707107 0.000000 0.707107
vn 0.707107 0.000000 0.707107
vn 0.707107 0.000000 0.707107
vn 0.707107 0.000000 0.707107
vn 0.000000 -0.707107 0.707107
vn 0.000000 -0.707107 0.707107
vn 0.000000 -0.707107 0.707107
vn 0.000000 -0.707107 0.707107
vn 0.000000 -0.707107 0.707107
vn 0.000000 -0.707107 0.707107
vn 0.000000 -0.707107 0.707107
vn 0.000000 -0.707107 0.707107
vn 0.000000 -0.707107 0.707107
vn 0.000000 -0.707107 0.707107
vn 0.000000 -0.707107 0.707107
vn 0.000000 -0.707107 0.707107
vn 0.000000 -0.707107 0.707107
vn 0.000000 -0.707107 0.707107
vn 0.000000 0.000000 1.000000
vn 0.000000 0.000000 1.000000
vn 0.000000 -0.707107 0.707107
vn 0.000000 -0.707107 0.707107
vn 0.000000 0.000000 1.000000
vn 0.000000 0.000000 1.000000
vn 0.000000 0.707107 0.707107
vn 0.000000 0.707107 0.707107
vn 0.000000 -0.707107 0.707107
vn 0.000000 -0.707107 0.707107
vn 0.000000 0.000000 1.000000
vn 0.000000 0.000000 1.000000
vn 0.000000 0.707107 0.707107
vn 0.000000 0.707107 0.707107
vn 0.000000 -0.707107 0.707107
vn 0.000000 -0.707107 0.707107
vn 0.000000 0.000000 1.000000
vn 0.000000 0.000000 1.000000
vn 0.000000 0.707107 0.707107
vn 0.000000 0.707107 0.707107
vn 0.000000 -0.707107 0.707107
vn 0.000000 -0.707107 0.707107
vn 0.000000 0.000000 1.000000
vn 0.000000 0.000000 1.000000
vn 0.000000 0.707107 0.707107
vn 0.000000 0.707107 0.707107
vn 0.000000 0.000000 1.000000
vn 0.000000 0.000000 1.000000
vn 0.000000 0.707107 0.707107
vn 0.000000 0.707107 0.707107
vn -0.707107 0.000000 0.707107
vn -0.707107 0.000000 0.707107
vn 0.000000 0.000000 1.000000
vn 0.000000 0.000000 1.000000
vn -0.707107 0.000000 0.707107
vn -0.707107 0.000000 0.707107
vn 0.000000 0.000000 1.000000
vn 0.000000 0.000000 1.000000
vn 0.707107 0.000000 0.707107
vn 0.707107 0.000000 0.707107
vn -0.707107 0.000000 0.707107
vn -0.707107 0.000000 0.707107
vn 0.000000 0.000000 1.000000
vn 0.000000 0.000000 1.000000
vn 0.707107 0.000000 0.707107
vn 0.707107 0.000000 0.707107
vn -0.707107 0.000000 0.707107
vn -0.707107 0.000000 0.707107
vn 0.000000 0.000000 1.000000
vn 0.000000 0.000000 1.000000
vn 0.707107 -0.000000 0.707107
vn 0.707107 0.000000 0.707107
vn -0.707107 0.000000 0.707107
vn -0.707107 0.000000 0.707107
vn 0.000000 0.000000 1.000000
vn 0.000000 0.000000 1.000000
vn 0.707107 0.000000 0.707107
vn 0.707107 0.000000 0.707107
vn 0.707107 0.000000 0.707107
vn 0.707107 0.000000 0.707107
vn 0.000000 0.707107 0.707107
vn 0.000000 0.707107 0.707107
vn 0.000000 0.000000 1.000000
vn 0.000000 0.000000 1.000000
vn 0.000000 0.707107 0.707107
vn 0.000000 0.707107 0.707107
vn 0.000000 0.000000 1.000000
vn 0.000000 0.000000 1.000000
vn 0.000000 -0.707107 0.707107
vn 0.000000 -0.707107 0.707107
vn 0.000000 0.707107 0.707107
vn 0.000000 0.707107 0.707107
vn 0.000000 0.000000 1.000000
vn 0.000000 0.000000 1.000000
vn 0.000000 -0.707107 0.707107
vn 0.000000 -0.707107 0.707107
vn 0.000000 0.707107 0.707107
vn 0.000000 0.707107 0.707107
vn 0.000000 0.000000 1.000000
vn 0.000000 0.000000 1.000000
vn 0.000000 -0.707107 0.707107
vn 0.000000 -0.707107 0.707107
vn 0.000000 0.707107 0.707107
vn 0.000000 0.707107 0.707107
vn 0.000000 0.000000 1.000000
vn 0.000000 0.000000 1.000000
vn 0.000000 -0.707107 0.707107
vn 0.000000 -0.707107 0.707107
vn 0.000000 -0.707107 0.707107
vn 0.000000 -0.707107 0.707107
vn 0.707107 0.000000 0.707107
vn 0.707107 0.000000 0.707107
vn 0.707107 0.000000 0.707107
vn 0.707107 0.000000 0.707107
vn 0.000000 0.000000 1.000000
vn 0.000000 0.000000 1.000000
vn -0.707107 0.000000 0.707107
vn -0.707107 0.000000 0.707107
vn 0.707107 0.000000 0.707107
vn 0.707107 0.000000 0.707107
vn 0.000000 0.000000 1.000000
vn 0.000000 0.000000 1.000000
vn -0.707107 0.000000 0.707107
vn -0.707107 0.000000 0.707107
vn 0.707107 -0.000000 0.707107
vn 0.707107 0.000000 0.707107
vn 0.000000 0.000000 1.000000
vn 0.000000 0.000000 1.000000
vn -0.707107 0.000000 0.707107
vn -0.707107 0.000000 0.707107
vn 0.707107 0.000000 0.707107
vn 0.707107 0.000000 0.707107
vn 0.000000 0.000000 1.000000
vn 0.000000 0.000000 1.000000
vn -0.707107 0.000000 0.707107
vn -0.707107 0.000000 0.707107
vn -0.707107 0.000000 0.707107
vn -0.707107 0.000000 0.707107
vn 0.707107 -0.000000 0.707107
vn 0.707107 0.000000 0.707107
vn 0.707107 0.000000 0.707107
vn 0.707107 0.000000 0.707107
vn 0.707107 0.000000 0.707107
vn 0.707107 0.000000 0.707107
vn 0.707107 0.000000 0.707107
vn 0.707107 0.000000 0.707107
vn 0.000000 -0.707107 0.707107
vn 0.000000 -0.707107 0.707107
vn 0.000000 -0.707107 0.707107
vn 0.000000 -0.707107 0.707107
vn 0.000000 -0.707107 0.707107
vn 0.000000 -0.707107 0.707107
vn 0.000000 -0.707107 0.707107
vn 0.000000 -0.707107 0.707107
vn -0.707107 0.000000 0.707107
vn -0.707107 0.000000 0.707107
vn -0.707107 0.000000 0.707107
vn -0.707107 0.000000 0.707107
vn -0.707107 0.000000 0.707107
vn -0.707107 0.000000 0.707107
vn -0.707107 0.000000 0.707107
vn -0.707107 0.000000 0.707107
vn 0.000000 0.707107 0.707107
vn 0.000000 0.707107 0.707107
vn 0.000000 0.707107 0.707107
vn 0.000000 0.707107 0.707107
vn 0.000000 0.707107 0.707107
vn 0.000000 0.707107 0.707107
vn 0.000000 0.707107 0.707107
vn 0.000000 0.707107 0.707107
vn -0.707107 0.000000 0.707107
vn -0.707107 0.000000 0.707107
vn -0.707107 0.000000 0.707107
vn -0.707107 0.000000 0.707107
vn -0.707107 0.000000 0.707107
vn -0.707107 0.000000 0.707107
vn -0.707107 0.000000 0.707107
vn -0.707107 0.000000 0.707107
vn 0.000000 0.707107 0.707107
vn 0.000000 0.707107 0.707107
vn 0.000000 0.707107 0.707107
vn 0.000000 0.707107 0.707107
vn 0.000000 0.707107 0.707107
vn 0.000000 0.707107 0.707107
vn 0.000000 0.707107 0.707107
vn 0.000000 0.707107 0.707107
vn 0.707107 0.000000 0.707107
vn 0.707107 0.000000 0.707107
vn 0.707107 0.000000 0.707107
vn 0.707107 0.000000 0.707107
vn 0.707107 0.000000 0.707107
vn 0.707107 0.000000 0.707107
vn 0.707107 0.000000 0.707107
vn 0.707107 0.000000 0.707107
vn 0.000000 -0.707107 0.707107
vn 0.000000 -0.707107 0.707107
vn 0.000000 -0.707107 0.707107
vn 0.000000 -0.707107 0.707107
vn 0.000000 -0.707107 0.707107
vn 0.000000 -0.707107 0.707107
vn 0.000000 -0.707107 0.707107
vn 0.000000 -0.707107 0.707107
vn 0.000000 -0.707107 0.707107
vn 0.000000 -0.707107 0.707107
vn 0.000000 0.000000 1.000000
vn 0.000000 0.000000 1.000000
vn 0.000000 -0.707107 0.707107
vn 0.000000 -0.707107 0.707107
vn 0.000000 0.000000 1.000000
vn 0.000000 0.000000 1.000000
vn 0.000000 0.707107 0.707107
vn 0.000000 0.707107 0.707107
vn 0.000000 -0.707107 0.707107
vn 0.000000 -0.707107 0.707107
vn 0.000000 0.000000 1.000000
vn 0.000000 0.000000 1.000000
vn 0.000000 0.707107 0.707107
vn 0.000000 0.707107 0.707107
vn 0.000000 0.000000 1.000000
vn 0.000000 0.000000 1.000000
vn 0.000000 0.707107 0.707107
vn 0.000000 0.707107 0.707107
vn -0.707107 0.000000 0.707107
vn -0.707107 0.000000 0.707107
vn 0.000000 0.000000 1.000000
vn 0.000000 0.000000 1.000000
vn -0.707107 0.000000 0.707107
vn -0.707107 0.000000 0.707107
vn 0.000000 0.000000 1.000000
vn 0.000000 0.000000 1.000000
vn 0.707107 0.000000 0.707107
vn 0.707107 0.000000 0.707107
vn -0.707107 0.000000 0.707107
vn -0.707107 0.000000 0.707107
vn 0.000000 0.000000 1.000000
vn 0.000000 0.000000 1.000000
vn 0.707107 0.000000 0.707107
vn 0.707107 0.000000 0.707107
vn 0.707107 0.000000 0.707107
vn 0.707107 0.000000 0.707107
vn 0.000000 0.707107 0.707107
vn 0.000000 0.707107 0.707107
vn 0.000000 0.000000 1.000000
vn 0.000000 0.000000 1.000000
vn 0.000000 0.707107 0.707107
vn 0.000000 0.707107 0.707107
vn 0.000000 0.000000 1.000000
vn 0.000000 0.000000 1.000000
vn 0.000000 -0.707107 0.707107
vn 0.000000 -0.707107 0.707107
vn 0.000000 0.707107 0.707107
vn 0.000000 0.707107 0.707107
vn 0.000000 0.000000 1.000000
vn 0.000000 0.000000 1.000000
vn 0.000000 -0.707107 0.707107
vn 0.000000 -0.707107 0.707107
vn 0.000000 -0.707107 0.707107
vn 0.000000 -0.707107 0.707107
vn 0.707107 0.000000 0.707107
vn 0.707107 0.000000 0.707107
vn 0.707107 -0.000000 0.707107
vn 0.707107 0.000000 0.707107
vn 0.000000 0.000000 1.000000
vn 0.000000 0.000000 1.000000
vn -0.707107 0.000000 0.707107
vn -0.707107 0.000000 0.707107
vn 0.707107 0.000000 0.707107
vn 0.707107 0.000000 0.707107
vn 0.000000 0.000000 1.000000
vn 0.000000 0.000000 1.000000
vn -0.707107 0.000000 0.707107
vn -0.707107 0.000000 0.707107
vn -0.707107 0.000000 0.707107
vn -0.707107 0.000000 0.707107
vn 0.707107 0.000000 0.707107
vn 0.707107 0.000000 0.707107
vn 0.707107 0.000000 0.707107
vn 0.707107 0.000000 0.707107
vn 0.000000 -0.707107 0.707107
vn 0.000000 -0.707107 0.707107
vn 0.000000 -0.707107 0.707107
vn 0.000000 -0.707107 0.707107
vn -0.707107 0.000000 0.707107
vn -0.707107 0.000000 0.707107
vn -0.707107 0.000000 0.707107
vn -0.707107 0.000000 0.707107
vn 0.000000 0.707107 0.707107
vn 0.000000 0.707107 0.707107
vn 0.000000 0.707107 0.707107
vn 0.000000 0.707107 0.707107
vn -0.707107 0.000000 0.707107
vn -0.707107 0.000000 0.707107
vn -0.707107 0.000000 0.707107
vn -0.707107 0.000000 0.707107
vn 0.000000 0.707107 0.707107
vn 0.000000 0.707107 0.707107
vn 0.000000 0.707107 0.707107
vn 0.000000 0.707107 0.707107
vn 0.707107 0.000000 0.707107
vn 0.707107 0.000000 0.707107
vn 0.707107 0.000000 0.707107
vn 0.707107 0.000000 0.707107
vn 0.000000 -0.707107 0.707107
vn 0.000000 -0.707107 0.707107
vn 0.000000 -0.707107 0.707107
vn 0.000000 -0.707107 0.707107
vn 0.000000 -0.707107 0.707107
vn 0.000000 -0.707107 0.707107
vn 0.000000 0.000000 1.000000
vn 0.000000 0.000000 1.000000
vn 0.000000 0.000000 1.000000
vn 0.000000 0.000000 1.000000
vn 0.000000 0.707107 0.707107
vn 0.000000 0.707107 0.707107
vn -0.707107 0.000000 0.707107
vn -0.707107 0.000000 0.707107
vn 0.000000 0.000000 1.000000
vn 0.000000 0.000000 1.000000
vn 0.707107 -0.000000 0.707107
vn 0.707107 0.000000 0.707107
vn 0.000000 0.707107 0.707107
vn 0.000000 0.707107 0.707107
vn 0.000000 0.000000 1.000000
vn 0.000000 0.000000 1.000000
vn 0.000000 -0.707107 0.707107
vn 0.000000 -0.707107 0.707107
vn 0.707107 0.000000 0.707107
vn 0.707107 0.000000 0.707107
vn -0.707107 0.000000 0.707107
vn -0.707107 0.000000 0.707107
f 1//1 2//1 3//1
f 1//2 3//2 4//2
f 5//3 6//3 4//3
f 4//4 3//4 5//4
f 3//5 7//5 5//5
f 6//6 1//6 4//6
f 3//7 2//7 7//7
f 2//8 8//8 7//8
f 6//9 8//9 1//9
f 1//10 8//10 2//10
f 5//11 7//11 9//11
f 9//12 7//12 10//12
f 7//13 8//13 10//13
f 10//14 8//14 11//14
f 8//15 6//15 11//15
f 11//16 6//16 12//16
f 6//17 5//17 12//17
f 12//18 5//18 9//18
f 13//19 14//19 9//19
f 10//20 13//20 9//20
f 15//21 9//21 14//21
f 12//22 9//22 15//22
f 16//23 13//23 10//23
f 11//24 16//24 10//24
f 11//25 12//25 15//25
f 11//26 15//26 16//26
f 17//27 18//27 15//27
f 19//28 20//28 17//28
f 19//29 17//29 15//29
f 21//30 19//30 15//30
f 22//31 23//31 21//31
f 22//32 21//32 15//32
f 24//33 22//33 15//33
f 25//34 24//34 15//34
f 26//35 24//35 25//35
f 27//36 25//36 15//36
f 28//37 27//37 15//37
f 29//38 27//38 28//38
f 30//39 28//39 15//39
f 31//40 30//40 32//40
f 33//41 34//41 35//41
f 36//42 37//42 38//42
f 39//43 40//43 41//43
f 42//44 43//44 44//44
f 14//45 43//45 41//45
f 14//46 40//46 38//46
f 14//47 37//47 33//47
f 14//48 35//48 32//48
f 14//49 30//49 15//49
f 14//50 32//50 30//50
f 14//51 33//51 35//51
f 14//52 38//52 37//52
f 14//53 41//53 40//53
f 14//54 44//54 43//54
f 45//55 44//55 14//55
f 46//56 47//56 16//56
f 48//57 46//57 16//57
f 49//58 46//58 48//58
f 50//59 48//59 16//59
f 51//60 50//60 16//60
f 52//61 50//61 51//61
f 53//62 51//62 16//62
f 54//63 53//63 16//63
f 55//64 53//64 54//64
f 56//65 54//65 16//65
f 57//66 56//66 16//66
f 58//67 56//67 57//67
f 59//68 57//68 16//68
f 60//69 59//69 61//69
f 62//70 63//70 64//70
f 65//71 66//71 67//71
f 68//72 69//72 70//72
f 71//73 72//73 73//73
f 15//74 72//74 70//74
f 15//75 69//75 67//75
f 15//76 66//76 62//76
f 15//77 64//77 61//77
f 15//78 59//78 16//78
f 15//79 61//79 59//79
f 15//80 62//80 64//80
f 15//81 67//81 66//81
f 15//82 70//82 69//82
f 15//83 73//83 72//83
f 18//84 73//84 15//84
f 74//85 75//85 13//85
f 76//86 74//86 13//86
f 77//87 74//87 76//87
f 78//88 76//88 13//88
f 79//89 78//89 13//89
f 80//90 78//90 79//90
f 81//91 79//91 13//91
f 82//92 81//92 13//92
f 83//93 81//93 82//93
f 84//94 82//94 13//94
f 85//95 84//95 13//95
f 86//96 84//96 85//96
f 87//97 85//97 13//97
f 88//98 87//98 89//98
f 90//99 91//99 92//99
f 93//100 94//100 95//100
f 96//101 97//101 98//101
f 99//102 100//102 101//102
f 16//103 100//103 98//103
f 16//104 97//104 95//104
f 16//105 94//105 90//105
f 16//106 92//106 89//106
f 16//107 87//107 13//107
f 16//108 89//108 87//108
f 16//109 90//109 92//109
f 16//110 95//110 94//110
f 16//111 98//111 97//111
f 16//112 101//112 100//112
f 47//113 101//113 16//113
f 102//114 45//114 14//114
f 103//115 102//115 14//115
f 104//116 102//116 103//116
f 105//117 103//117 14//117
f 106//118 105//118 14//118
f 107//119 105//119 106//119
f 108//120 106//120 14//120
f 109//121 108//121 14//121
f 110//122 108//122 109//122
f 111//123 109//123 14//123
f 112//124 111//124 14//124
f 113//125 111//125 112//125
f 114//126 112//126 14//126
f 115//127 114//127 116//127
f 117//128 118//128 119//128
f 120//129 121//129 122//129
f 123//130 124//130 125//130
f 126//131 127//131 128//131
f 13//132 127//132 125//132
f 13//133 124//133 122//133
f 13//134 121//134 117//134
f 13//135 119//135 116//135
f 13//136 114//136 14//136
f 13//137 116//137 114//137
f 13//138 117//138 119//138
f 13//139 122//139 121//139
f 13//140 125//140 124//140
f 13//141 128//141 127//141
f 75//142 128//142 13//142
f 73//143 18//143 129//143
f 129//144 18//144 17//144
f 130//145 129//145 20//145
f 20//146 129//146 17//146
f 19//147 131//147 20//147
f 131//148 130//148 20//148
f 131//149 19//149 132//149
f 132//150 19//150 21//150
f 133//151 132//151 23//151
f 23//152 132//152 21//152
f 22//153 134//153 23//153
f 134//154 133//154 23//154
f 134//155 22//155 135//155
f 135//156 22//156 24//156
f 136//157 135//157 26//157
f 26//158 135//158 24//158
f 25//159 137//159 26//159
f 137//160 136//160 26//160
f 137//161 25//161 138//161
f 138//162 25//162 27//162
f 139//163 138//163 29//163
f 29//164 138//164 27//164
f 28//165 140//165 29//165
f 140//166 139//166 29//166
f 140//167 28//167 141//167
f 141//168 28//168 30//168
f 142//169 141//169 31//169
f 31//170 141//170 30//170
f 32//171 143//171 31//171
f 143//172 142//172 31//172
f 143//173 32//173 144//173
f 144//174 32//174 35//174
f 145//175 144//175 34//175
f 34//176 144//176 35//176
f 33//177 146//177 34//177
f 146//178 145//178 34//178
f 146//179 33//179 147//179
f 147//180 33//180 37//180
f 148//181 147//181 36//181
f 36//182 147//182 37//182
f 38//183 149//183 36//183
f 149//184 148//184 36//184
f 149//185 38//185 150//185
f 150//186 38//186 40//186
f 151//187 150//187 39//187
f 39//188 150//188 40//188
f 41//189 152//189 39//189
f 152//190 151//190 39//190
f 152//191 41//191 153//191
f 153//192 41//192 43//192
f 154//193 153//193 42//193
f 42//194 153//194 43//194
f 44//195 155//195 42//195
f 155//196 154//196 42//196
f 102//197 44//197 45//197
f 155//198 44//198 102//198
f 101//199 46//199 156//199
f 47//200 46//200 101//200
f 157//201 156//201 49//201
f 49//202 156//202 46//202
f 48//203 158//203 49//203
f 158//204 157//204 49//204
f 48//205 50//205 158//205
f 158//206 50//206 159//206
f 160//207 159//207 52//207
f 52//208 159//208 50//208
f 51//209 161//209 52//209
f 161//210 160//210 52//210
f 51//211 53//211 161//211
f 161//212 53//212 162//212
f 163//213 162//213 55//213
f 55//214 162//214 53//214
f 54//215 164//215 55//215
f 164//216 163//216 55//216
f 54//217 56//217 164//217
f 164//218 56//218 165//218
f 166//219 165//219 58//219
f 58//220 165//220 56//220
f 57//221 167//221 58//221
f 167//222 166//222 58//222
f 57//223 59//223 167//223
f 167//224 59//224 168//224
f 169//225 168//225 60//225
f 60//226 168//226 59//226
f 61//227 170//227 60//227
f 170//228 169//228 60//228
f 61//229 64//229 170//229
f 170//230 64//230 171//230
f 172//231 171//231 63//231
f 63//232 171//232 64//232
f 62//233 173//233 63//233
f 173//234 172//234 63//234
f 62//235 66//235 173//235
f 173//236 66//236 174//236
f 175//237 174//237 65//237
f 65//238 174//238 66//238
f 67//239 176//239 65//239
f 176//240 175//240 65//240
f 67//241 69//241 176//241
f 176//242 69//242 177//242
f 178//243 177//243 68//243
f 68//244 177//244 69//244
f 70//245 179//245 68//245
f 179//246 178//246 68//246
f 70//247 72//247 179//247
f 179//248 72//248 180//248
f 130//249 180//249 71//249
f 71//250 180//250 72//250
f 73//251 129//251 71//251
f 129//252 130//252 71//252
f 75//253 181//253 128//253
f 74//254 181//254 75//254
f 74//255 77//255 181//255
f 181//256 77//256 182//256
f 182//257 77//257 183//257
f 77//258 76//258 183//258
f 78//259 184//259 76//259
f 76//260 184//260 183//260
f 78//261 80//261 184//261
f 184//262 80//262 185//262
f 185//263 80//263 186//263
f 80//264 79//264 186//264
f 81//265 187//265 79//265
f 79//266 187//266 186//266
f 81//267 83//267 187//267
f 187//268 83//268 188//268
f 188//269 83//269 189//269
f 83//270 82//270 189//270
f 84//271 190//271 82//271
f 82//272 190//272 189//272
f 84//273 86//273 190//273
f 190//274 86//274 191//274
f 191//275 86//275 192//275
f 86//276 85//276 192//276
f 85//277 193//277 192//277
f 87//278 193//278 85//278
f 87//279 88//279 193//279
f 193//280 88//280 194//280
f 194//281 88//281 195//281
f 88//282 89//282 195//282
f 92//283 196//283 89//283
f 89//284 196//284 195//284
f 92//285 91//285 196//285
f 196//286 91//286 197//286
f 197//287 91//287 198//287
f 91//288 90//288 198//288
f 94//289 199//289 90//289
f 90//290 199//290 198//290
f 94//291 93//291 199//291
f 199//292 93//292 200//292
f 200//293 93//293 201//293
f 93//294 95//294 201//294
f 97//295 202//295 95//295
f 95//296 202//296 201//296
f 97//297 96//297 202//297
f 202//298 96//298 203//298
f 203//299 96//299 204//299
f 96//300 98//300 204//300
f 98//301 205//301 204//301
f 100//302 205//302 98//302
f 100//303 99//303 205//303
f 205//304 99//304 157//304
f 157//305 99//305 156//305
f 99//306 101//306 156//306
f 102//307 104//307 155//307
f 155//308 104//308 154//308
f 154//309 104//309 206//309
f 104//310 103//310 206//310
f 207//311 206//311 105//311
f 105//312 206//312 103//312
f 105//313 107//313 207//313
f 207//314 107//314 208//314
f 208//315 107//315 209//315
f 107//316 106//316 209//316
f 210//317 209//317 108//317
f 108//318 209//318 106//318
f 108//319 110//319 210//319
f 210//320 110//320 211//320
f 211//321 110//321 212//321
f 110//322 109//322 212//322
f 213//323 212//323 111//323
f 111//324 212//324 109//324
f 111//325 113//325 213//325
f 213//326 113//326 214//326
f 214//327 113//327 215//327
f 113//328 112//328 215//328
f 114//329 215//329 112//329
f 216//330 215//330 114//330
f 114//331 115//331 216//331
f 216//332 115//332 217//332
f 217//333 115//333 218//333
f 115//334 116//334 218//334
f 219//335 218//335 119//335
f 119//336 218//336 116//336
f 119//337 118//337 219//337
f 219//338 118//338 220//338
f 220//339 118//339 221//339
f 118//340 117//340 221//340
f 222//341 221//341 121//341
f 121//342 221//342 117//342
f 121//343 120//343 222//343
f 222//344 120//344 223//344
f 223//345 120//345 224//345
f 120//346 122//346 224//346
f 225//347 224//347 124//347
f 124//348 224//348 122//348
f 124//349 123//349 225//349
f 225//350 123//350 226//350
f 226//351 123//351 227//351
f 123//352 125//352 227//352
f 127//353 227//353 125//353
f 228//354 227//354 127//354
f 127//355 126//355 228//355
f 228//356 126//356 182//356
f 182//357 126//357 181//357
f 126//358 128//358 181//358
f 131//359 132//359 130//359
f 132//360 133//360 130//360
f 134//361 135//361 133//361
f 135//362 136//362 133//362
f 137//363 138//363 136//363
f 138//364 139//364 136//364
f 140//365 141//365 139//365
f 141//366 142//366 139//366
f 143//367 144//367 142//367
f 144//368 145//368 142//368
f 146//369 147//369 145//369
f 147//370 148//370 145//370
f 149//371 150//371 148//371
f 150//372 151//372 148//372
f 152//373 153//373 151//373
f 153//374 154//374 151//374
f 157//375 158//375 160//375
f 160//376 158//376 159//376
f 163//377 160//377 162//377
f 160//378 161//378 162//378
f 166//379 163//379 165//379
f 163//380 164//380 165//380
f 169//381 166//381 168//381
f 166//382 167//382 168//382
f 172//383 169//383 171//383
f 169//384 170//384 171//384
f 175//385 172//385 174//385
f 172//386 173//386 174//386
f 178//387 175//387 177//387
f 175//388 176//388 177//388
f 130//389 178//389 180//389
f 178//390 179//390 180//390
f 185//391 182//391 184//391
f 182//392 183//392 184//392
f 188//393 185//393 187//393
f 185//394 186//394 187//394
f 191//395 188//395 190//395
f 188//396 189//396 190//396
f 194//397 191//397 193//397
f 191//398 192//398 193//398
f 197//399 194//399 196//399
f 194//400 195//400 196//400
f 200//401 197//401 199//401
f 197//402 198//402 199//402
f 203//403 200//403 202//403
f 200//404 201//404 202//404
f 157//405 203//405 205//405
f 203//406 204//406 205//406
f 207//407 208//407 206//407
f 206//408 208//408 154//408
f 210//409 211//409 209//409
f 209//410 211//410 208//410
f 213//411 214//411 212//411
f 212//412 214//412 211//412
f 216//413 217//413 215//413
f 215//414 217//414 214//414
f 219//415 220//415 218//415
f 218//416 220//416 217//416
f 222//417 223//417 221//417
f 221//418 223//418 220//418
f 225//419 226//419 224//419
f 224//420 226//420 223//420
f 227//421 228//421 226//421
f 228//422 182//422 226//422
f 130//423 133//423 229//423
f 133//424 230//424 229//424
f 133//425 136//425 231//425
f 136//426 232//426 231//426
f 136//427 139//427 233//427
f 139//428 234//428 233//428
f 139//429 142//429 235//429
f 142//430 236//430 235//430
f 142//431 145//431 237//431
f 145//432 238//432 237//432
f 145//433 148//433 239//433
f 148//434 240//434 239//434
f 148//435 151//435 241//435
f 151//436 242//436 241//436
f 154//437 243//437 151//437
f 151//438 243//438 244//438
f 245//439 157//439 246//439
f 246//440 157//440 160//440
f 247//441 160//441 248//441
f 248//442 160//442 163//442
f 249//443 163//443 250//443
f 250//444 163//444 166//444
f 251//445 166//445 252//445
f 252//446 166//446 169//446
f 253//447 169//447 254//447
f 254//448 169//448 172//448
f 255//449 172//449 256//449
f 256//450 172//450 175//450
f 257//451 175//451 258//451
f 258//452 175//452 178//452
f 259//453 178//453 229//453
f 229//454 178//454 130//454
f 260//455 182//455 261//455
f 261//456 182//456 185//456
f 262//457 185//457 263//457
f 263//458 185//458 188//458
f 264//459 188//459 265//459
f 265//460 188//460 191//460
f 266//461 267//461 194//461
f 267//462 191//462 194//462
f 268//463 194//463 269//463
f 269//464 194//464 197//464
f 270//465 197//465 271//465
f 271//466 197//466 200//466
f 272//467 273//467 203//467
f 273//468 200//468 203//468
f 245//469 274//469 157//469
f 274//470 203//470 157//470
f 154//471 208//471 243//471
f 208//472 275//472 243//472
f 208//473 211//473 276//473
f 211//474 277//474 276//474
f 211//475 214//475 278//475
f 214//476 279//476 278//476
f 214//477 217//477 280//477
f 217//478 281//478 280//478
f 217//479 220//479 282//479
f 220//480 283//480 282//480
f 220//481 223//481 284//481
f 223//482 285//482 284//482
f 223//483 226//483 286//483
f 226//484 287//484 286//484
f 226//485 182//485 288//485
f 182//486 260//486 288//486
f 133//487 289//487 230//487
f 289//488 290//488 230//488
f 259//489 229//489 290//489
f 290//490 229//490 230//490
f 136//491 291//491 232//491
f 291//492 292//492 232//492
f 293//493 231//493 292//493
f 292//494 231//494 232//494
f 293//495 289//495 231//495
f 231//496 289//496 133//496
f 139//497 294//497 234//497
f 294//498 295//498 234//498
f 296//499 233//499 295//499
f 295//500 233//500 234//500
f 296//501 291//501 233//501
f 233//502 291//502 136//502
f 142//503 297//503 236//503
f 297//504 298//504 236//504
f 299//505 235//505 298//505
f 298//506 235//506 236//506
f 299//507 294//507 235//507
f 235//508 294//508 139//508
f 145//509 300//509 238//509
f 300//510 301//510 238//510
f 302//511 237//511 301//511
f 301//512 237//512 238//512
f 302//513 297//513 237//513
f 237//514 297//514 142//514
f 148//515 303//515 240//515
f 303//516 304//516 240//516
f 305//517 239//517 304//517
f 304//518 239//518 240//518
f 305//519 300//519 239//519
f 239//520 300//520 145//520
f 151//521 306//521 242//521
f 306//522 307//522 242//522
f 308//523 241//523 307//523
f 307//524 241//524 242//524
f 308//525 303//525 241//525
f 241//526 303//526 148//526
f 309//527 244//527 275//527
f 275//528 244//528 243//528
f 309//529 306//529 244//529
f 244//530 306//530 151//530
f 160//531 310//531 246//531
f 310//532 311//532 246//532
f 245//533 246//533 274//533
f 274//534 246//534 311//534
f 163//535 312//535 248//535
f 312//536 313//536 248//536
f 247//537 248//537 314//537
f 314//538 248//538 313//538
f 247//539 314//539 160//539
f 314//540 310//540 160//540
f 166//541 315//541 250//541
f 315//542 316//542 250//542
f 249//543 250//543 317//543
f 317//544 250//544 316//544
f 249//545 317//545 163//545
f 317//546 312//546 163//546
f 169//547 318//547 252//547
f 318//548 319//548 252//548
f 251//549 252//549 320//549
f 320//550 252//550 319//550
f 320//551 315//551 251//551
f 251//552 315//552 166//552
f 172//553 321//553 254//553
f 321//554 322//554 254//554
f 253//555 254//555 323//555
f 323//556 254//556 322//556
f 253//557 323//557 169//557
f 323//558 318//558 169//558
f 175//559 324//559 256//559
f 324//560 325//560 256//560
f 255//561 256//561 326//561
f 326//562 256//562 325//562
f 255//563 326//563 172//563
f 326//564 321//564 172//564
f 178//565 289//565 258//565
f 289//566 327//566 258//566
f 257//567 258//567 328//567
f 328//568 258//568 327//568
f 257//569 328//569 175//569
f 328//570 324//570 175//570
f 259//571 290//571 178//571
f 290//572 289//572 178//572
f 329//573 261//573 330//573
f 261//574 185//574 330//574
f 261//575 329//575 260//575
f 260//576 329//576 288//576
f 263//577 188//577 331//577
f 331//578 188//578 332//578
f 263//579 331//579 262//579
f 262//580 331//580 333//580
f 185//581 262//581 330//581
f 330//582 262//582 333//582
f 265//583 191//583 334//583
f 334//584 191//584 335//584
f 265//585 334//585 264//585
f 264//586 334//586 336//586
f 332//587 188//587 336//587
f 188//588 264//588 336//588
f 266//589 194//589 337//589
f 337//590 194//590 338//590
f 266//591 337//591 267//591
f 267//592 337//592 339//592
f 191//593 267//593 335//593
f 335//594 267//594 339//594
f 269//595 197//595 340//595
f 340//596 197//596 341//596
f 269//597 340//597 268//597
f 268//598 340//598 342//598
f 194//599 268//599 338//599
f 338//600 268//600 342//600
f 271//601 200//601 343//601
f 343//602 200//602 344//602
f 271//603 343//603 270//603
f 270//604 343//604 345//604
f 197//605 270//605 341//605
f 341//606 270//606 345//606
f 272//607 203//607 346//607
f 346//608 203//608 310//608
f 272//609 346//609 273//609
f 273//610 346//610 347//610
f 200//611 273//611 344//611
f 344//612 273//612 347//612
f 203//613 274//613 310//613
f 310//614 274//614 311//614
f 309//615 275//615 306//615
f 275//616 208//616 306//616
f 348//617 277//617 349//617
f 277//618 211//618 349//618
f 348//619 350//619 277//619
f 277//620 350//620 276//620
f 208//621 276//621 306//621
f 306//622 276//622 350//622
f 351//623 279//623 352//623
f 279//624 214//624 352//624
f 279//625 353//625 278//625
f 351//626 353//626 279//626
f 349//627 211//627 353//627
f 211//628 278//628 353//628
f 354//629 281//629 355//629
f 281//630 217//630 355//630
f 354//631 356//631 281//631
f 281//632 356//632 280//632
f 352//633 214//633 356//633
f 214//634 280//634 356//634
f 357//635 283//635 358//635
f 283//636 220//636 358//636
f 357//637 359//637 283//637
f 283//638 359//638 282//638
f 217//639 282//639 355//639
f 355//640 282//640 359//640
f 285//641 223//641 360//641
f 360//642 223//642 361//642
f 360//643 362//643 285//643
f 285//644 362//644 284//644
f 220//645 284//645 358//645
f 358//646 284//646 362//646
f 363//647 287//647 330//647
f 287//648 226//648 330//648
f 287//649 364//649 286//649
f 363//650 364//650 287//650
f 361//651 223//651 364//651
f 223//652 286//652 364//652
f 330//653 226//653 329//653
f 226//654 288//654 329//654
f 293//655 292//655 289//655
f 292//656 291//656 289//656
f 296//657 295//657 291//657
f 295//658 294//658 291//658
f 299//659 298//659 294//659
f 298//660 297//660 294//660
f 302//661 301//661 297//661
f 301//662 300//662 297//662
f 305//663 304//663 300//663
f 304//664 303//664 300//664
f 308//665 307//665 303//665
f 307//666 306//666 303//666
f 310//667 314//667 312//667
f 312//668 314//668 313//668
f 315//669 312//669 316//669
f 312//670 317//670 316//670
f 318//671 315//671 319//671
f 315//672 320//672 319//672
f 321//673 318//673 322//673
f 318//674 323//674 322//674
f 324//675 321//675 325//675
f 321//676 326//676 325//676
f 289//677 324//677 327//677
f 324//678 328//678 327//678
f 332//679 330//679 331//679
f 330//680 333//680 331//680
f 335//681 332//681 334//681
f 332//682 336//682 334//682
f 338//683 335//683 337//683
f 335//684 339//684 337//684
f 341//685 338//685 340//685
f 338//686 342//686 340//686
f 344//687 341//687 343//687
f 341//688 345//688 343//688
f 310//689 344//689 346//689
f 344//690 347//690 346//690
f 348//691 349//691 350//691
f 350//692 349//692 306//692
f 351//693 352//693 353//693
f 353//694 352//694 349//694
f 354//695 355//695 356//695
f 356//696 355//696 352//696
f 357//697 358//697 359//697
f 359//698 358//698 355//698
f 360//699 361//699 362//699
f 362//700 361//700 358//700
f 363//701 330//701 364//701
f 364//702 330//702 361//702
f 289//703 291//703 365//703
f 291//704 366//704 365//704
f 291//705 294//705 367//705
f 294//706 368//706 367//706
f 294//707 297//707 369//707
f 297//708 370//708 369//708
f 297//709 300//709 371//709
f 300//710 372//710 371//710
f 300//711 303//711 373//711
f 303//712 374//712 373//712
f 303//713 306//713 375//713
f 306//714 376//714 375//714
f 377//715 310//715 378//715
f 378//716 310//716 312//716
f 379//717 312//717 380//717
f 380//718 312//718 315//718
f 381//719 315//719 382//719
f 382//720 315//720 318//720
f 383//721 318//721 384//721
f 384//722 318//722 321//722
f 385//723 321//723 386//723
f 386//724 321//724 324//724
f 387//725 324//725 365//725
f 365//726 324//726 289//726
f 388//727 330//727 389//727
f 389//728 330//728 332//728
f 390//729 391//729 335//729
f 391//730 332//730 335//730
f 392//731 335//731 393//731
f 393//732 335//732 338//732
f 394//733 395//733 341//733
f 395//734 338//734 341//734
f 396//735 397//735 344//735
f 397//736 341//736 344//736
f 377//737 398//737 310//737
f 398//738 344//738 310//738
f 306//739 349//739 376//739
f 349//740 399//740 376//740
f 349//741 352//741 400//741
f 352//742 401//742 400//742
f 352//743 355//743 402//743
f 355//744 403//744 402//744
f 355//745 358//745 404//745
f 358//746 405//746 404//746
f 358//747 361//747 406//747
f 361//748 407//748 406//748
f 361//749 330//749 408//749
f 330//750 388//750 408//750
f 291//751 409//751 366//751
f 409//752 410//752 366//752
f 387//753 365//753 410//753
f 410//754 365//754 366//754
f 294//755 411//755 368//755
f 411//756 412//756 368//756
f 413//757 367//757 412//757
f 412//758 367//758 368//758
f 413//759 409//759 367//759
f 367//760 409//760 291//760
f 297//761 414//761 370//761
f 414//762 415//762 370//762
f 416//763 369//763 415//763
f 415//764 369//764 370//764
f 416//765 411//765 369//765
f 369//766 411//766 294//766
f 300//767 417//767 372//767
f 417//768 418//768 372//768
f 419//769 371//769 418//769
f 418//770 371//770 372//770
f 419//771 414//771 371//771
f 371//772 414//772 297//772
f 303//773 420//773 374//773
f 420//774 421//774 374//774
f 422//775 373//775 421//775
f 421//776 373//776 374//776
f 422//777 417//777 373//777
f 373//778 417//778 300//778
f 423//779 375//779 399//779
f 399//780 375//780 376//780
f 423//781 420//781 375//781
f 375//782 420//782 303//782
f 312//783 424//783 378//783
f 424//784 425//784 378//784
f 377//785 378//785 398//785
f 398//786 378//786 425//786
f 315//787 426//787 380//787
f 426//788 427//788 380//788
f 379//789 380//789 428//789
f 428//790 380//790 427//790
f 379//791 428//791 312//791
f 428//792 424//792 312//792
f 318//793 429//793 382//793
f 429//794 430//794 382//794
f 381//795 382//795 431//795
f 431//796 382//796 430//796
f 381//797 431//797 315//797
f 431//798 426//798 315//798
f 321//799 432//799 384//799
f 432//800 433//800 384//800
f 383//801 384//801 434//801
f 434//802 384//802 433//802
f 434//803 429//803 383//803
f 383//804 429//804 318//804
f 324//805 409//805 386//805
f 409//806 435//806 386//806
f 385//807 386//807 436//807
f 436//808 386//808 435//808
f 385//809 436//809 321//809
f 436//810 432//810 321//810
f 387//811 410//811 324//811
f 410//812 409//812 324//812
f 389//813 332//813 437//813
f 437//814 332//814 438//814
f 389//815 437//815 388//815
f 388//816 437//816 408//816
f 390//817 335//817 439//817
f 439//818 335//818 440//818
f 390//819 439//819 391//819
f 391//820 439//820 441//820
f 438//821 332//821 441//821
f 332//822 391//822 441//822
f 393//823 338//823 442//823
f 442//824 338//824 443//824
f 393//825 442//825 392//825
f 392//826 442//826 444//826
f 335//827 392//827 440//827
f 440//828 392//828 444//828
f 394//829 341//829 445//829
f 445//830 341//830 446//830
f 394//831 445//831 395//831
f 395//832 445//832 447//832
f 338//833 395//833 443//833
f 443//834 395//834 447//834
f 396//835 344//835 448//835
f 448//836 344//836 424//836
f 396//837 448//837 397//837
f 397//838 448//838 449//838
f 341//839 397//839 446//839
f 446//840 397//840 449//840
f 344//841 398//841 424//841
f 424//842 398//842 425//842
f 423//843 399//843 420//843
f 399//844 349//844 420//844
f 450//845 401//845 451//845
f 401//846 352//846 451//846
f 450//847 452//847 401//847
f 401//848 452//848 400//848
f 420//849 349//849 452//849
f 349//850 400//850 452//850
f 453//851 403//851 454//851
f 403//852 355//852 454//852
f 453//853 455//853 403//853
f 403//854 455//854 402//854
f 451//855 352//855 455//855
f 352//856 402//856 455//856
f 405//857 358//857 456//857
f 456//858 358//858 457//858
f 456//859 458//859 405//859
f 405//860 458//860 404//860
f 454//861 355//861 458//861
f 355//862 404//862 458//862
f 459//863 407//863 438//863
f 407//864 361//864 438//864
f 459//865 460//865 407//865
f 407//866 460//866 406//866
f 457//867 358//867 460//867
f 358//868 406//868 460//868
f 438//869 361//869 437//869
f 361//870 408//870 437//870
f 412//871 411//871 413//871
f 413//872 411//872 409//872
f 416//873 415//873 411//873
f 415//874 414//874 411//874
f 419//875 418//875 414//875
f 418//876 417//876 414//876
f 422//877 421//877 417//877
f 421//878 420//878 417//878
f 426//879 424//879 427//879
f 424//880 428//880 427//880
f 429//881 426//881 430//881
f 426//882 431//882 430//882
f 432//883 429//883 433//883
f 429//884 434//884 433//884
f 409//885 432//885 435//885
f 432//886 436//886 435//886
f 440//887 438//887 439//887
f 438//888 441//888 439//888
f 443//889 440//889 442//889
f 440//890 444//890 442//890
f 446//891 443//891 445//891
f 443//892 447//892 445//892
f 424//893 446//893 448//893
f 446//894 449//894 448//894
f 450//895 451//895 452//895
f 452//896 451//896 420//896
f 453//897 454//897 455//897
f 455//898 454//898 451//898
f 456//899 457//899 458//899
f 458//900 457//900 454//900
f 459//901 438//901 460//901
f 460//902 438//902 457//902
f 409//903 411//903 461//903
f 411//904 462//904 461//904
f 411//905 414//905 463//905
f 414//906 464//906 463//906
f 414//907 417//907 465//907
f 417//908 466//908 465//908
f 417//909 420//909 467//909
f 420//910 468//910 467//910
f 469//911 424//911 470//911
f 470//912 424//912 426//912
f 471//913 426//913 472//913
f 472//914 426//914 429//914
f 473//915 429//915 474//915
f 474//916 429//916 432//916
f 475//917 432//917 461//917
f 461//918 432//918 409//918
f 476//919 477//919 440//919
f 477//920 438//920 440//920
f 478//921 479//921 443//921
f 479//922 440//922 443//922
f 480//923 481//923 446//923
f 481//924 443//924 446//924
f 469//925 482//925 424//925
f 482//926 446//926 424//926
f 420//927 451//927 468//927
f 451//928 483//928 468//928
f 451//929 454//929 484//929
f 454//930 485//930 484//930
f 454//931 457//931 486//931
f 457//932 487//932 486//932
f 457//933 438//933 488//933
f 438//934 477//934 488//934
f 411//935 489//935 462//935
f 489//936 490//936 462//936
f 475//937 461//937 490//937
f 490//938 461//938 462//938
f 414//939 491//939 464//939
f 491//940 492//940 464//940
f 493//941 463//941 492//941
f 492//942 463//942 464//942
f 493//943 489//943 463//943
f 463//944 489//944 411//944
f 417//945 494//945 466//945
f 494//946 495//946 466//946
f 496//947 465//947 495//947
f 495//948 465//948 466//948
f 496//949 491//949 465//949
f 465//950 491//950 414//950
f 497//951 467//951 483//951
f 483//952 467//952 468//952
f 497//953 494//953 467//953
f 467//954 494//954 417//954
f 426//955 498//955 470//955
f 498//956 499//956 470//956
f 469//957 470//957 482//957
f 482//958 470//958 499//958
f 429//959 500//959 472//959
f 500//960 501//960 472//960
f 471//961 472//961 502//961
f 502//962 472//962 501//962
f 471//963 502//963 426//963
f 502//964 498//964 426//964
f 432//965 489//965 474//965
f 489//966 503//966 474//966
f 473//967 474//967 504//967
f 504//968 474//968 503//968
f 473//969 504//969 429//969
f 504//970 500//970 429//970
f 475//971 490//971 432//971
f 490//972 489//972 432//972
f 476//973 440//973 505//973
f 505//974 440//974 506//974
f 476//975 505//975 477//975
f 477//976 505//976 488//976
f 478//977 443//977 507//977
f 507//978 443//978 508//978
f 478//979 507//979 479//979
f 479//980 507//980 509//980
f 506//981 440//981 509//981
f 440//982 479//982 509//982
f 480//983 446//983 510//983
f 510//984 446//984 498//984
f 480//985 510//985 481//985
f 481//986 510//986 511//986
f 443//987 481//987 508//987
f 508//988 481//988 511//988
f 446//989 482//989 498//989
f 498//990 482//990 499//990
f 497//991 483//991 494//991
f 483//992 451//992 494//992
f 485//993 454//993 512//993
f 512//994 454//994 513//994
f 512//995 514//995 485//995
f 485//996 514//996 484//996
f 494//997 451//997 514//997
f 451//998 484//998 514//998
f 515//999 487//999 506//999
f 487//1000 457//1000 506//1000
f 515//1001 516//1001 487//1001
f 487//1002 516//1002 486//1002
f 513//1003 454//1003 516//1003
f 454//1004 486//1004 516//1004
f 506//1005 457//1005 505//1005
f 457//1006 488//1006 505//1006
f 493//1007 492//1007 489//1007
f 492//1008 491//1008 489//1008
f 496//1009 495//1009 491//1009
f 495//1010 494//1010 491//1010
f 500//1011 498//1011 501//1011
f 498//1012 502//1012 501//1012
f 489//1013 500//1013 503//1013
f 500//1014 504//1014 503//1014
f 508//1015 506//1015 507//1015
f 506//1016 509//1016 507//1016
f 498//1017 508//1017 510//1017
f 508//1018 511//1018 510//1018
f 512//1019 513//1019 514//1019
f 514//1020 513//1020 494//1020
f 515//1021 506//1021 516//1021
f 516//1022 506//1022 513//1022
f 489//1023 491//1023 517//1023
f 491//1024 518//1024 517//1024
f 491//1025 494//1025 519//1025
f 494//1026 520//1026 519//1026
f 521//1027 498//1027 522//1027
f 522//1028 498//1028 500//1028
f 523//1029 500//1029 517//1029
f 517//1030 500//1030 489//1030
f 524//1031 525//1031 508//1031
f 525//1032 506//1032 508//1032
f 521//1033 526//1033 498//1033
f 526//1034 508//1034 498//1034
f 513//1035 527//1035 494//1035
f 494//1036 527//1036 520//1036
f 506//1037 525//1037 513//1037
f 513//1038 525//1038 528//1038
f 491//1039 529//1039 518//1039
f 529//1040 530//1040 518//1040
f 523//1041 517//1041 530//1041
f 530//1042 517//1042 518//1042
f 531//1043 519//1043 527//1043
f 527//1044 519//1044 520//1044
f 531//1045 529//1045 519//1045
f 519//1046 529//1046 491//1046
f 500//1047 529//1047 522//1047
f 529//1048 532//1048 522//1048
f 521//1049 522//1049 526//1049
f 526//1050 522//1050 532//1050
f 530//1051 529//1051 523//1051
f 523//1052 529//1052 500//1052
f 524//1053 508//1053 533//1053
f 533//1054 508//1054 529//1054
f 524//1055 533//1055 525//1055
f 525//1056 533//1056 528//1056
f 529//1057 508//1057 532//1057
f 508//1058 526//1058 532//1058
f 531//1059 527//1059 529//1059
f 527//1060 513//1060 529//1060
f 529//1061 513//1061 533//1061
f 513//1062 528//1062 533//1062
